Order of the Court of First Instance of 10 March 2006 — Success-Marketing v OHIM
(Case T -506/04) [1]
(2006/C 108/54)
Language of the case: German
The President of the Fifth Chamber has ordered that the case be removed from the register.
[1] OJ C 193 6.8.2005.
--------------------------------------------------
