Order of the Civil Service Tribunal of 18 May 2006 — Eerola
v Commission
(Case F -110/05) [1]
(2006/C 154/67)
Language of the case: French
The President of the First Chamber has ordered that the case be removed from the register.
[1] OJ C 48, 25.2.2006.
--------------------------------------------------
