Order of the Court of First Instance of 9 December 2005 — Raymond Claudel
v Court of Auditors
(Case T -338/05) [1]
(2006/C 48/82)
Language of the case: French
The President of the Third Chamber has ordered that the case be removed from the register.
[1] OJ C 296 of 26.11.2005.
--------------------------------------------------
