Euro exchange rates [1]
22 February 2006
(2006/C 45/01)
| Currency | Exchange rate |
USD | US dollar | 1,1875 |
JPY | Japanese yen | 140,91 |
DKK | Danish krone | 7,4620 |
GBP | Pound sterling | 0,68280 |
SEK | Swedish krona | 9,3762 |
CHF | Swiss franc | 1,5593 |
ISK | Iceland króna | 80,48 |
NOK | Norwegian krone | 8,0575 |
BGN | Bulgarian lev | 1,9558 |
CYP | Cyprus pound | 0,5746 |
CZK | Czech koruna | 28,553 |
EEK | Estonian kroon | 15,6466 |
HUF | Hungarian forint | 253,31 |
LTL | Lithuanian litas | 3,4528 |
LVL | Latvian lats | 0,6961 |
MTL | Maltese lira | 0,4293 |
PLN | Polish zloty | 3,8130 |
RON | Romanian leu | 3,4975 |
SIT | Slovenian tolar | 239,49 |
SKK | Slovak koruna | 37,445 |
TRY | Turkish lira | 1,5805 |
AUD | Australian dollar | 1,6162 |
CAD | Canadian dollar | 1,3640 |
HKD | Hong Kong dollar | 9,2168 |
NZD | New Zealand dollar | 1,8055 |
SGD | Singapore dollar | 1,9389 |
KRW | South Korean won | 1157,34 |
ZAR | South African rand | 7,2828 |
CNY | Chinese yuan renminbi | 9,5590 |
HRK | Croatian kuna | 7,3155 |
IDR | Indonesian rupiah | 11109,06 |
MYR | Malaysian ringgit | 4,419 |
PHP | Philippine peso | 61,513 |
RUB | Russian rouble | 33,5210 |
THB | Thai baht | 46,926 |
[1] Source: reference exchange rate published by the ECB.
--------------------------------------------------
