Order of the Court of First Instance of 18 November 2005 — Fédération de l'hospitalisation privée
v Commission
(Case T -397/03) [1]
(2006/C 22/46)
Language of the case: French
The President of the Third Chamber has ordered that the case be removed from the register.
[1] OJ C 47, 21.2.2004.
--------------------------------------------------
