Order of the Court of First Instance of 6 July 2006 — Cofira-Sac
v Commission
(Case T-43/06) [1]
(2006/C 212/81)
Language of the case: Italian
The President of the Second Chamber has ordered that the case be removed from the register.
[1] OJ C 86, 8.4.2006.
--------------------------------------------------
