Euro exchange rates [1]
20 July 2006
(2006/C 169/01)
| Currency | Exchange rate |
USD | US dollar | 1,2643 |
JPY | Japanese yen | 147,68 |
DKK | Danish krone | 7,4601 |
GBP | Pound sterling | 0,68300 |
SEK | Swedish krona | 9,2305 |
CHF | Swiss franc | 1,5707 |
ISK | Iceland króna | 92,75 |
NOK | Norwegian krone | 7,9320 |
BGN | Bulgarian lev | 1,9558 |
CYP | Cyprus pound | 0,5750 |
CZK | Czech koruna | 28,348 |
EEK | Estonian kroon | 15,6466 |
HUF | Hungarian forint | 275,00 |
LTL | Lithuanian litas | 3,4528 |
LVL | Latvian lats | 0,6960 |
MTL | Maltese lira | 0,4293 |
PLN | Polish zloty | 3,9463 |
RON | Romanian leu | 3,5628 |
SIT | Slovenian tolar | 239,64 |
SKK | Slovak koruna | 38,183 |
TRY | Turkish lira | 1,9635 |
AUD | Australian dollar | 1,6829 |
CAD | Canadian dollar | 1,4334 |
HKD | Hong Kong dollar | 9,8312 |
NZD | New Zealand dollar | 2,0303 |
SGD | Singapore dollar | 2,0042 |
KRW | South Korean won | 1203,55 |
ZAR | South African rand | 8,8855 |
CNY | Chinese yuan renminbi | 10,1040 |
HRK | Croatian kuna | 7,2418 |
IDR | Indonesian rupiah | 11587,31 |
MYR | Malaysian ringgit | 4,653 |
PHP | Philippine peso | 66,129 |
RUB | Russian rouble | 34,0350 |
THB | Thai baht | 48,090 |
[1] Source: reference exchange rate published by the ECB.
--------------------------------------------------
