Order of the Civil Service Tribunal of 19 June 2006 — Nanbru
v Parliament
(Case F -127/05) [1]
(2006/C 190/73)
Language of the case: French
The President of the First Chamber has ordered that the case be removed from the register, following amicable settlement.
[1] OJ C 60, 11.3.2006.
--------------------------------------------------
