Order of the President of the Court of 8 August 2006 — Commission of the European Communities
v Grand Duchy of Luxembourg
(Case C-128/06) [1]
(2006/C 294/78)
Language of the case: French
The President of the Court has ordered that the case be removed from the register.
[1] OJ C 108, 06.05.2005.
--------------------------------------------------
