Euro exchange rates [1]
30 June 2006
(2006/C 153/01)
| Currency | Exchange rate |
USD | US dollar | 1,2713 |
JPY | Japanese yen | 145,75 |
DKK | Danish krone | 7,4592 |
GBP | Pound sterling | 0,69210 |
SEK | Swedish krona | 9,2385 |
CHF | Swiss franc | 1,5672 |
ISK | Iceland króna | 97,01 |
NOK | Norwegian krone | 7,9360 |
BGN | Bulgarian lev | 1,9558 |
CYP | Cyprus pound | 0,5750 |
CZK | Czech koruna | 28,493 |
EEK | Estonian kroon | 15,6466 |
HUF | Hungarian forint | 283,35 |
LTL | Lithuanian litas | 3,4528 |
LVL | Latvian lats | 0,6961 |
MTL | Maltese lira | 0,4293 |
PLN | Polish zloty | 4,0546 |
RON | Romanian leu | 3,5703 |
SIT | Slovenian tolar | 239,63 |
SKK | Slovak koruna | 38,350 |
TRY | Turkish lira | 2,0075 |
AUD | Australian dollar | 1,7117 |
CAD | Canadian dollar | 1,4132 |
HKD | Hong Kong dollar | 9,8745 |
NZD | New Zealand dollar | 2,0864 |
SGD | Singapore dollar | 2,0137 |
KRW | South Korean won | 1206,08 |
ZAR | South African rand | 9,1848 |
CNY | Chinese yuan renminbi | 10,1648 |
HRK | Croatian kuna | 7,2445 |
IDR | Indonesian rupiah | 11776,05 |
MYR | Malaysian ringgit | 4,671 |
PHP | Philippine peso | 67,519 |
RUB | Russian rouble | 34,2400 |
THB | Thai baht | 48,575 |
[1] Source: reference exchange rate published by the ECB.
--------------------------------------------------
