Euro exchange rates [1]
9 March 2006
(2006/C 58/01)
| Currency | Exchange rate |
USD | US dollar | 1,1920 |
JPY | Japanese yen | 140,10 |
DKK | Danish krone | 7,4596 |
GBP | Pound sterling | 0,68580 |
SEK | Swedish krona | 9,4299 |
CHF | Swiss franc | 1,5635 |
ISK | Iceland króna | 82,67 |
NOK | Norwegian krone | 8,0235 |
BGN | Bulgarian lev | 1,9558 |
CYP | Cyprus pound | 0,5747 |
CZK | Czech koruna | 28,700 |
EEK | Estonian kroon | 15,6466 |
HUF | Hungarian forint | 257,25 |
LTL | Lithuanian litas | 3,4528 |
LVL | Latvian lats | 0,6960 |
MTL | Maltese lira | 0,4293 |
PLN | Polish zloty | 3,8763 |
RON | Romanian leu | 3,4939 |
SIT | Slovenian tolar | 239,54 |
SKK | Slovak koruna | 37,527 |
TRY | Turkish lira | 1,6015 |
AUD | Australian dollar | 1,6194 |
CAD | Canadian dollar | 1,3793 |
HKD | Hong Kong dollar | 9,2513 |
NZD | New Zealand dollar | 1,8328 |
SGD | Singapore dollar | 1,9396 |
KRW | South Korean won | 1170,60 |
ZAR | South African rand | 7,4667 |
CNY | Chinese yuan renminbi | 9,5932 |
HRK | Croatian kuna | 7,3178 |
IDR | Indonesian rupiah | 11089,77 |
MYR | Malaysian ringgit | 4,434 |
PHP | Philippine peso | 61,233 |
RUB | Russian rouble | 33,4270 |
THB | Thai baht | 46,568 |
[1] Source: reference exchange rate published by the ECB.
--------------------------------------------------
