Order of the Court of First Instance of 22 November 2005 — Degussa Initiators
v Commission
(Case T-104/04) [1]
(2006/C 22/47)
Language of the case: German
The President of the Third Chamber has ordered that the case be removed from the register.
[1] OJ C 118, 30.4.2004.
--------------------------------------------------
