Order of the Court of First Instance of 7 October 2005 — Umwelt- und Ingenieurtechnik
v Commission
(Case T-125/05) [1]
(2005/C 315/35)
Language of the case: German
The President of the Fifth Chamber has ordered that the case be removed from the register.
[1] OJ C 115, 14.5.2005.
--------------------------------------------------
