Corrigendum to Decision No 197 of 23 March 2004 on the transitional periods for the introduction of the European Health Insurance Card in accordance with Article 5 of Decision No 191
(Official Journal of the European Union L 343 of 19 November 2004)
On page 30, Annex I, as regards Austria:
for:
" 31 December 2005",
read:
" 28 February 2005".
On page 30, Annex III, as regards Liechtenstein:
for:
" 31 December 2005",
read:
" 28 February 2005".
--------------------------------------------------
