Commission Regulation (EC) No 1872/2005
of 15 November 2005
establishing unit values for the determination of the customs value of certain perishable goods
THE COMMISSION OF THE EUROPEAN COMMUNITIES,
Having regard to the Treaty establishing the European Community,
Having regard to Council Regulation (EEC) No 2913/92 of 12 October 1992 establishing the Community Customs Code [1],
Having regard to Commission Regulation (EEC) No 2454/93 [2] laying down provisions for the implementation of Regulation (EEC) No 2913/92, and in particular Article 173(1) thereof,
Whereas:
(1) Articles 173 to 177 of Regulation (EEC) No 2454/93 provide that the Commission shall periodically establish unit values for the products referred to in the classification in Annex 26 to that Regulation.
(2) The result of applying the rules and criteria laid down in the abovementioned Articles to the elements communicated to the Commission in accordance with Article 173(2) of Regulation (EEC) No 2454/93 is that unit values set out in the Annex to this Regulation should be established in regard to the products in question,
HAS ADOPTED THIS REGULATION:
Article 1
The unit values provided for in Article 173(1) of Regulation (EEC) No 2454/93 are hereby established as set out in the table in the Annex hereto.
Article 2
This Regulation shall enter into force on 18 November 2005.
This Regulation shall be binding in its entirety and directly applicable in all Member States.
Done at Brussels, 15 November 2005.
For the Commission
Günter Verheugen
Vice-President
[1] OJ L 302, 19.10.1992, p. 1. Regulation as last amended by Regulation (EC) No 648/2005 (OJ L 117, 4.5.2005, p. 13).
[2] OJ L 253, 11.10.1993, p. 1. Regulation as last amended by Regulation (EC) No 883/2005 (OJ L 148, 11.6.2005, p. 5).
--------------------------------------------------
ANNEX
Code | Description | Amount of unit values per 100 kg |
Species, varieties, CN code | EUR LTL SEK | CYP LVL GBP | CZK MTL | DKK PLN | EEK SIT | HUF SKK |
1.10 | New potatoes 07019050 | — | — | — | — | — | — |
— | — | — | — | — | — |
— | — | | | | |
1.30 | Onions (other than seed) 07031019 | 23,69 | 13,59 | 703,33 | 176,75 | 370,66 | 5954,52 |
81,79 | 16,50 | 10,17 | 94,51 | 5674,27 | 925,49 |
225,75 | 16,13 | | | | |
1.40 | Garlic 07032000 | 159,37 | 91,40 | 4731,73 | 1189,12 | 2493,62 | 40059,54 |
550,28 | 110,99 | 68,42 | 635,81 | 38174,18 | 6226,31 |
1518,73 | 108,52 | | | | |
1.50 | Leeks ex07039000 | 62,17 | 35,65 | 1845,83 | 463,87 | 972,75 | 15627,05 |
214,66 | 43,30 | 26,69 | 248,03 | 14891,58 | 2428,86 |
592,45 | 42,33 | | | | |
1.60 | Cauliflowers 07041000 | — | — | — | — | — | — |
1.80 | White cabbages and red cabbages 07049010 | 47,92 | 27,48 | 1422,74 | 357,55 | 749,79 | 12045,17 |
165,46 | 33,37 | 20,57 | 191,18 | 11478,28 | 1872,14 |
456,65 | 32,63 | | | | |
1.90 | Sprouting broccoli or calabrese (Brassica oleracea L. convar. botrytis (L.) Alef var. italica Plenck) ex07049090 | — | — | — | — | — | — |
— | — | — | — | — | — |
— | — | | | | |
1.100 | Chinese cabbage ex07049090 | 104,01 | 59,65 | 3088,06 | 776,05 | 1627,40 | 26143,95 |
359,13 | 72,43 | 44,65 | 414,95 | 24913,52 | 4063,46 |
991,16 | 70,82 | | | | |
1.110 | Cabbage lettuce (head lettuce) 07051100 | — | — | — | — | — | — |
1.130 | Carrots ex07061000 | 30,30 | 17,38 | 899,61 | 226,08 | 474,09 | 7616,21 |
104,62 | 21,10 | 13,01 | 120,88 | 7257,76 | 1183,76 |
288,74 | 20,63 | | | | |
1.140 | Radishes ex07069090 | 52,35 | 30,02 | 1554,27 | 390,60 | 819,10 | 13158,70 |
180,75 | 36,46 | 22,47 | 208,85 | 12539,40 | 2045,21 |
498,87 | 35,65 | | | | |
1.160 | Peas (Pisum sativum) 07081000 | 462,43 | 265,20 | 13729,50 | 3450,32 | 7235,43 | 116236,00 |
1596,67 | 322,04 | 198,52 | 1844,86 | 110765,47 | 18066,15 |
4406,71 | 314,87 | | | | |
1.170 | Beans: | | | | | | |
1.170.1 | —Beans (Vigna spp., Phaseolus spp.)ex07082000 | 132,50 | 75,99 | 3934,02 | 988,65 | 2073,22 | 33306,00 |
457,51 | 92,28 | 56,88 | 528,62 | 31738,49 | 5176,64 |
1262,69 | 90,22 | | | | |
1.170.2 | —Beans (Phaseolus spp., vulgaris var. Compressus Savi)ex07082000 | 151,09 | 86,65 | 4485,86 | 1127,33 | 2364,04 | 37977,98 |
521,68 | 105,22 | 64,86 | 602,77 | 36190,59 | 5902,78 |
1439,81 | 102,88 | | | | |
1.180 | Broad beans ex07089000 | — | — | — | — | — | — |
1.190 | Globe artichokes 07091000 | — | — | — | — | — | — |
1.200 | Asparagus: | | | | | | |
1.200.1 | —greenex07092000 | 266,27 | 152,70 | 7905,47 | 1986,70 | 4166,18 | 66928,92 |
919,37 | 185,43 | 114,31 | 1062,27 | 63778,98 | 10402,53 |
2537,39 | 181,30 | | | | |
1.200.2 | —otherex07092000 | 463,35 | 265,73 | 13756,92 | 3457,21 | 7249,88 | 116468,16 |
1599,86 | 322,68 | 198,92 | 1848,54 | 110986,70 | 18102,24 |
4415,51 | 315,50 | | | | |
1.210 | Aubergines (eggplants) 07093000 | 99,22 | 56,90 | 2945,83 | 740,31 | 1552,45 | 24939,84 |
342,59 | 69,10 | 42,59 | 395,84 | 23766,07 | 3876,31 |
945,51 | 67,56 | | | | |
1.220 | Ribbed celery (Apium graveolens L., var. dulce (Mill.) Pers.) ex07094000 | 138,52 | 79,44 | 4112,66 | 1033,54 | 2167,37 | 34818,39 |
478,28 | 96,47 | 59,47 | 552,63 | 33179,70 | 5411,70 |
1320,03 | 94,32 | | | | |
1.230 | Chantarelles 07095910 | 334,34 | 191,74 | 9926,55 | 2494,61 | 5231,28 | 84039,70 |
1154,41 | 232,83 | 143,53 | 1333,85 | 80084,46 | 13062,00 |
3186,09 | 227,65 | | | | |
1.240 | Sweet peppers 07096010 | 98,66 | 56,58 | 2929,34 | 736,16 | 1543,76 | 24800,26 |
340,67 | 68,71 | 42,36 | 393,62 | 23633,06 | 3854,62 |
940,22 | 67,18 | | | | |
1.250 | Fennel 07099050 | — | — | — | — | — | — |
1.270 | Sweet potatoes, whole, fresh (intended for human consumption) 07142010 | 77,69 | 44,55 | 2306,51 | 579,64 | 1215,53 | 19527,23 |
268,24 | 54,10 | 33,35 | 309,93 | 18608,20 | 3035,05 |
740,31 | 52,90 | | | | |
2.10 | Chestnuts (Castanea spp.) fresh ex08024000 | — | — | — | — | — | — |
2.30 | Pineapples, fresh ex08043000 | 47,08 | 27,00 | 1397,71 | 351,25 | 736,59 | 11833,22 |
162,55 | 32,78 | 20,21 | 187,81 | 11276,31 | 1839,20 |
448,62 | 32,05 | | | | |
2.40 | Avocados, fresh ex08044000 | 141,95 | 81,41 | 4214,56 | 1059,15 | 2221,07 | 35681,10 |
490,13 | 98,86 | 60,94 | 566,32 | 34001,81 | 5545,79 |
1352,73 | 96,66 | | | | |
2.50 | Guavas and mangoes, fresh ex080450 | — | — | — | — | — | — |
2.60 | Sweet oranges, fresh: | | | | | | |
2.60.1 | —Sanguines and semi-sanguinesex08051020 | 44,39 | 25,46 | 1317,94 | 331,21 | 694,55 | 11157,87 |
153,27 | 30,91 | 19,06 | 177,09 | 10632,74 | 1734,23 |
423,01 | 30,23 | | | | |
2.60.2 | —Navels, navelines, navelates, salustianas, vernas, Valencia lates, Maltese, shamoutis, ovalis, trovita and hamlinsex08051020 | 40,35 | 23,14 | 1198,04 | 301,08 | 631,37 | 10142,78 |
139,33 | 28,10 | 17,32 | 160,98 | 9665,42 | 1576,46 |
384,53 | 27,48 | | | | |
2.60.3 | —Othersex08051020 | 47,63 | 27,32 | 1414,13 | 355,38 | 745,25 | 11972,28 |
164,46 | 33,17 | 20,45 | 190,02 | 11408,81 | 1860,81 |
453,89 | 32,43 | | | | |
2.70 | Mandarins (including tangerines and satsumas), fresh; clementines, wilkings and similar citrus hybrids, fresh: | | | | | | |
2.70.1 | —Clementinesex08052010 | — | — | — | — | — | — |
— | — | — | — | — | — |
— | — | | | | |
2.70.2 | —Monreales and satsumasex08052030 | — | — | — | — | — | — |
— | — | — | — | — | — |
— | — | | | | |
2.70.3 | —Mandarines and wilkingsex08052050 | — | — | — | — | — | — |
— | — | — | — | — | — |
— | — | | | | |
2.70.4 | —Tangerines and othersex08052070ex08052090 | — | — | — | — | — | — |
— | — | — | — | — | — |
— | — | | | | |
2.85 | Limes (Citrus aurantifolia, Citrus latifolia), fresh 08055090 | 78,93 | 45,26 | 2343,32 | 588,89 | 1234,93 | 19838,86 |
272,52 | 54,96 | 33,88 | 314,88 | 18905,17 | 3083,48 |
752,13 | 53,74 | | | | |
2.90 | Grapefruit, fresh: | | | | | | |
2.90.1 | —whiteex08054000 | 63,02 | 36,14 | 1870,95 | 470,18 | 985,99 | 15839,75 |
217,58 | 43,88 | 27,05 | 251,40 | 15094,27 | 2461,92 |
600,51 | 42,91 | | | | |
2.90.2 | —pinkex08054000 | 71,87 | 41,22 | 2133,84 | 536,25 | 1124,53 | 18065,42 |
248,16 | 50,05 | 30,85 | 286,73 | 17215,19 | 2807,84 |
684,89 | 48,94 | | | | |
2.100 | Table grapes 08061010 | — | — | — | — | — | — |
— | — | — | — | — | — |
— | — | | | | |
2.110 | Water melons 08071100 | 76,06 | 43,62 | 2258,22 | 567,51 | 1190,08 | 19118,44 |
262,62 | 52,97 | 32,65 | 303,44 | 18218,65 | 2971,51 |
724,81 | 51,79 | | | | |
2.120 | Melons (other than water melons): | | | | | | |
2.120.1 | —Amarillo, cuper, honey dew (including cantalene), onteniente, piel de sapo (including verde liso), rochet, tendral, futuroex08071900 | 59,11 | 33,90 | 1755,08 | 441,06 | 924,92 | 14858,74 |
204,11 | 41,17 | 25,38 | 235,83 | 14159,43 | 2309,44 |
563,32 | 40,25 | | | | |
2.120.2 | —Otherex08071900 | 85,59 | 49,08 | 2541,02 | 638,58 | 1339,12 | 21512,67 |
295,51 | 59,60 | 36,74 | 341,44 | 20500,20 | 3343,64 |
815,58 | 58,27 | | | | |
2.140 | Pears | | | | | | |
2.140.1 | —Pears — nashi (Pyrus pyrifolia),Pears — Ya (Pyrus bretscheideri)ex08082050 | — | — | — | — | — | — |
— | — | — | — | — | — |
— | — | | | | |
2.140.2 | —Otherex08082050 | — | — | — | — | — | — |
— | — | — | — | — | — |
— | — | | | | |
2.150 | Apricots 08091000 | 116,20 | 66,64 | 3449,98 | 867,00 | 1818,13 | 29208,03 |
401,22 | 80,92 | 49,88 | 463,58 | 27833,39 | 4539,70 |
1107,33 | 79,12 | | | | |
2.160 | Cherries 08092095 08092005 | 473,31 | 271,44 | 14052,57 | 3531,51 | 7405,69 | 118971,20 |
1634,24 | 329,61 | 203,19 | 1888,27 | 113371,94 | 18491,28 |
4510,41 | 322,28 | | | | |
2.170 | Peaches 08093090 | 108,43 | 62,18 | 3219,29 | 809,03 | 1696,56 | 27254,96 |
374,39 | 75,51 | 46,55 | 432,58 | 25972,24 | 4236,14 |
1033,28 | 73,83 | | | | |
2.180 | Nectarines ex08093010 | 143,55 | 82,33 | 4262,00 | 1071,07 | 2246,07 | 36082,73 |
495,65 | 99,97 | 61,63 | 572,69 | 34384,53 | 5608,21 |
1367,96 | 97,74 | | | | |
2.190 | Plums 08094005 | 105,89 | 60,73 | 3143,85 | 790,07 | 1656,81 | 26616,33 |
365,61 | 73,74 | 45,46 | 422,45 | 25363,66 | 4136,88 |
1009,07 | 72,10 | | | | |
2.200 | Strawberries 08101000 | 361,87 | 207,53 | 10744,04 | 2700,05 | 5662,10 | 90960,65 |
1249,48 | 252,01 | 155,35 | 1443,70 | 86679,68 | 14137,69 |
3448,48 | 246,40 | | | | |
2.205 | Raspberries 08102010 | 304,95 | 174,89 | 9053,97 | 2275,32 | 4771,43 | 76652,23 |
1052,93 | 212,37 | 130,92 | 1216,60 | 73044,67 | 11913,79 |
2906,02 | 207,64 | | | | |
2.210 | Fruit of the species Vaccinium myrtillus 08104030 | 1455,44 | 834,69 | 43212,01 | 10859,47 | 22772,69 | 365839,40 |
5025,34 | 1013,57 | 624,82 | 5806,48 | 348621,54 | 56861,13 |
13869,62 | 991,01 | | | | |
2.220 | Kiwi fruit (Actinidia chinensis Planch.) 08105000 | 148,01 | 84,89 | 4394,55 | 1104,38 | 2315,92 | 37204,90 |
511,06 | 103,08 | 63,54 | 590,50 | 35453,89 | 5782,63 |
1410,50 | 100,78 | | | | |
2.230 | Pomegranates ex08109095 | 88,63 | 50,83 | 2631,51 | 661,32 | 1386,80 | 22278,74 |
306,03 | 61,72 | 38,05 | 353,60 | 21230,21 | 3462,71 |
844,63 | 60,35 | | | | |
2.240 | Khakis (including sharon fruit) ex08109095 | 211,97 | 121,57 | 6293,51 | 1581,60 | 3316,67 | 53281,76 |
731,90 | 147,62 | 91,00 | 845,67 | 50774,11 | 8281,40 |
2020,01 | 144,33 | | | | |
2.250 | Lychees ex081090 | — | — | — | — | — | — |
--------------------------------------------------
