Removal from the register of Case C-402/04 [1]
(2005/C 330/25)
Language of the case: French
By order of 4 October 2005, the President of the Court of Justice (Fifth Chamber) of the European Communities has ordered the removal from the register of Case C-402/04: Commission of the European Communities
v French Republic.
[1] OJ C 273, 6.11.2004.
--------------------------------------------------
