Publication of the main points of Decisions granting financial assistance under Council Regulation (EC) No 1164/94 establishing a Cohesion Fund, as amended by Regulations (EC) No 1264/1999 and (EC) No 1265/1999
(2005/C 128/01)
CYPRUS — 2004
Project No | Title | Total cost(in EUR) | Cohesion Fund assistance(in EUR) | Planned start and finish of implementation | Date of Decision |
2004CYCPT001 | Upgrading of the Limassol Bypass Germasogeia and Ay.Athanasios Roundabouts | 40794000 | 25292280 | 2004 | 31.12.2008 | 29.11.2004 |
CZECH REPUBLIC — 2004
Project No | Title | Total cost(in EUR) | Cohesion Fund assistance(in EUR) | Planned start and finish of implementation | Date of Decision |
2004CZ16CPE001 | Karvina: Sewerage extension | 22062000 | 17649600 | 1.6.2005 | 31.12.2008 | 21.12.2004 |
2004CZ16CPE002 | Pribram: WWTP upgrading | 8938000 | 6345980 | 1.10.2005 | 31.12.2008 | 21.12.2004 |
2004CZ16CPE003 | Pilsen: Expansion sewer infrastructure | 52120000 | 39090000 | 1.6.2005 | 31.12.2009 | 21.12.2004 |
2004CZ16CPE004 | Lužická Nisa River: WWTP and sew. | 28797000 | 20733840 | 15.3.2006 | 31.12.2010 | 23.12.2004 |
2004CZ16CPE005 | Karlovy Vary: Waste Water Manag. | 8717100 | 6363483 | 1.4.2005 | 31.12.2008 | 21.12.2004 |
2004CZ16CPE007 | Klatovy - Clean Town | 13677000 | 9573900 | 1.4.2005 | 31.12.2008 | 23.12.2004 |
2004CZ16CPE008 | Beroun: Sewerage system extension | 12379460 | 8046649 | 1.5.2005 | 31.12.2008 | 23.12.2004 |
2004CZ16CPE014 | Šumperk, Sewers + WWTP | 20831000 | 15623250 | 1.9.2005 | 31.12.2008 | 21.12.2004 |
2004CZ16CPE015 | Sewerager + WWTP Radbuza | 24161000 | 18120750 | 1.9.2005 | 31.12.2009 | 21.12.2004 |
2004CZ16CPE016 | Břeclav, Sewer, WWTP, water distribution | 47279000 | 37350410 | 1.6.2005 | 31.10.2008 | 21.12.2004 |
2004CZ16CPA001 | TA MA (see also transport) | 273000 | 232050 | 29.6.2004 | 31.12.2007 | 23.12.2004 |
Project No | Title | Total cost(in EUR) | Cohesion Fund assistance(in EUR) | Planned start and finish of implementation | Date of Decision |
2004CZ16CPT001 | R48 Dobrá - Tošanovice - Žukov, Stage 2 Tošanovice - Žukov | 48766000 | 37062160 | 1.3.2005 | 31.12.2008 | 23.12.2004 |
2004CZ16CPT002 | Červenka - Zábřeh na Moravě, Stage I + II | 133531000 | 100148250 | 1.7.2005 | 31.7.2009 | 24.12.2004 |
2004CZ16CPT004 | Motorway D1, Kroměříž West - East | 51457000 | 39107320 | 1.12.2004 | 31.12.2009 | 23.12.2004 |
2004CZ16CPT005 | Prague Ring Road, Section 514 | 344111000 | 103233300 | 1.7.2005 | 31.10.2010 | 24.12.2004 |
2004CZ16CPA001 | TA MA (see also environment) | 273000 | 232050 | 29.6.2004 | 31.12.2007 | 23.12.2004 |
2000CZ16PPT003 | Úsek rychlostní komunikace R48 Frýdek-Místek - Dobrá | | | | 31.12.2006 | 29.12.2004 |
2000CZ16PPT006 | Modernizace železničního úseku Záboří — Přelouč | | | | 31.12.2005 | 7.12.2004 |
ESTONIA —2004
Project No | Title | Total cost(in EUR) | Cohesion Fund assistance(in EUR) | Planned start and finish of implementation | Date of Decision |
2004EE16CPE002 | Viimsi water management | 13100000 | 9825000 | 1.12.2004 | 31.12.2008 | 9.12.2004 |
2004EE16CPE003 | Pärnu sub-river basin, Pärnu and Paide water management | 19840000 | 14880000 | 1.11.2005 | 31.12.2009 | 7.12.2004 |
2004EE16CPE004 | Matsalu sub-river basin, water and sewage system | 27569000 | 22055200 | 1.1.2006 | 31.12.2009 | 23.12.2004 |
2004EE16CPE005 | Läänesaarte sub-river basin, water and sewage system | 21503000 | 17202400 | 1.6.2006 | 31.12.2009 | 23.12.2004 |
Project No | Title | Total cost(in EUR) | Cohesion Fund assistance(in EUR) | Planned start and finish of implementation | Date of Decision |
2004EE16CPT002 | Reconstruction of Jõhvi-Tartu-Valga road | 37930680 | 31103157 | 1.7.2005 | 31.12.2008 | 24.12.2004 |
2002EE16PPA009 | Modification of Technical assistance for transport sector | 22000000 | 17699000 | 1.12.2003 | 31.12.2009 | 23.12.2004 |
GREECE — 2004
Project No | Title | Total cost(in EUR) | Cohesion Fund assistance(in EUR) | Planned start and finish of implementation | Date of Decision |
2004GR16CPE001 | Construction of Phase A 2nd Landfill West Attica in Skalistiri of Phyli municipality | 53345000 | 40008750 | 27.11.2003 | 31.12.2008 | 21.12.2004 |
2004GR16CPE002 | Landfill + Waste recycling and compost plant in Attica | 19450710 | 14588032 | 27.11.2003 | 31.6.2008 | 22.12.2004 |
2004GR16CPE003 | Waste compaction plant (SMA) at Eleonas, Attiki | 15261970 | 11446477 | 24.10.2003 | 31.12.2008 | 21.12.2004 |
2004GR16CPE004 | Main sewage networks and water waste treatment plant in the Thriassio area | 62071260 | 27932067 | 22.11.2004 | 31.12.2009 | 27.12.2004 |
2004GR16CPE005 | Secondary sewage networks of Eastern and Western section of Thriassio area | 66500001 | 49875001 | 27.10.2003 | 31.12.2009 | 27.12.2004 |
2004GR16CPE006 | Solid waste management in the Prefecture of Etoloakarnania | 22842659 | 17131994 | 5.10.2004 | 1.10.2008 | 15.12.2004 |
2004GR16CPE007 | Solid waste management works Prefecture of Achaia, West Greece | 8951000 | 6713250 | 6.10.2004 | 31.12.2007 | 17.12.2004 |
2004GR16CPE008 | Solid waste management at the prefecture of Viotia | 10131495 | 7598621 | 5.10.2004 | 31.12.2007 | 21.12.2004 |
2004GR16CPE009 | Water Supply of Patras from the rivers Piros and Parapiros, Phase B - Construction | 173556329 | 130167247 | 5.10.2004 | 31.12.2008 | 24.12.2004 |
2004GR16CPE010 | Construction of Landfill at Mavro Vouno Grammatiko | 21450410 | 16087808 | 6.10.2004 | 31.12.2008 | 21.12.2004 |
2004GR16CPE011 | Solid waste management plants, Region of Central Macedonia - Giannitsa - Serres - Katerini | 18287823 | 13715867 | 5.10.2004 | 30.6.2008 | 22.12.2004 |
2004GR16CPE012 | Waste management system in the Region of East Macedonia - Thrace | 25179379 | 18884534 | 5.10.2004 | 31.12.2008 | 22.12.2004 |
2004GR16CPE014 | National Database of Hydrological and Meteorological Information (Phase C) | 9205487 | 6904115 | 5.10.2004 | 31.12.2007 | 22.12.2004 |
2004GR16CPE015 | Water supply - sewage and waste water disposal Municipality Eressou-Antissis | 22100000 | 16575000 | 25.10.2004 | 31.12.2009 | 15.12.2004 |
2004GR16CPE018 | Sludge drier unit waste processing centre at the Psittalia waste water treatment plant | 48557000 | 36417750 | 9.11.2004 | 31.12.2007 | 22.12.2004 |
2003GR16CPE019 | Solid waste management in Thessaly | 18035278 | 13526459 | 17.10.2003 | 31.5.2007 | 25.2.2004 |
2001GR16CPE024 | Sewage network and waste water cleaning unit municipality of Chalastra (*) | 19515000 | 14636250 | 17.9.2001 | 31.12.2006 | 21.4.2004 |
2000GR16CPE001 | Landfill and Mechanical recycling-compost unit, Municipality of Akrotiri in Chania - Crete (*) | 30800000 | 23100000 | 27.9.2000 | 31.7.2005 | 24.3.2004 |
2000GR16CPE002 | Studies and expropriations for the water supply of Patras from the rivers Pyro and Parapyro (*) | 14600000 | 10950000 | 14.11.2000 | 31.12.2004 | 2.6.2004 |
2000GR16CPE007 | Sewage Municipality of Patras (*) | 14271500 | 10703625 | 14.12.2000 | 31.12.2004 | 27.2.2004 |
99/09/61/002 | Landfill construction at Mesolongi (*) | 2900000 | 2320000 | 11.5.1999 | 31.12.2005 | 6.2.2004 |
98/09/61/007 | Collection, transport, treatment and disposal of waste water works S. Chalkidiki (*) | 20688000 | 15516000 | 24.11.2000 | 31.12.2007 | 19.5.2004 |
98/09/61/0091998GR16CPR008 | Waste water treatment plants Almiros (*) | 11181391 | 8386043 | 21.8.1998 | 15.8.2005 | 26.1.2004 |
97/09/61/005 | Water supply Alexandroupolis & six neighbouring communities | 1579106 | 1263285 | 25.9.1997 | 30.6.2005 | 28.4.2004 |
95/09/61/005 | Sewage and waste water treatment station Pylou (*) | 5910000 | 4728000 | 30.8.1995 | 31.12.2003 | 9.3.2004 |
94/09/61/015-2 | Sewage and waste water treatment station Skydras (*) | 1830000 | 1555500 | 14.12.1995 | 31.6.2004 | 3.6.2004 |
Project No | Title | Total cost(in EUR) | Cohesion Fund assistance(in EUR) | Planned start and finish of implementation | Date of Decision |
2003GR16CPT004 | Electrification of the Athens-Thessaloniki railway line, B-phase | 56000000 | 28000000 | 27.9.2000 | 31.12.2007 | 19.11.2004 |
2004GR16CPT002 | Construction of the new double track railway line, section Kiato-Rododafni | 534000000 | 267000000 | 1.9.2004 | 31.12.2009 | 29.12.2004 |
98/09/65/0011998GR16CPT902 | Railway line in the area of the river Axiou | 17823530 | 15150000 | 7.7.1998 | 31.12.2004 | 6.2.2004 |
94/09/65/016-g1994GR16CPT938 | Egnatia, section: Mesovouni-Kristallopigi | 14705882 | 12500000 | 13.7.1994 | 31.12.2004 | 2.2.2004 |
94/09/65/0191994GR16CPT019 | Egnatia, section: Asprovalta-Strimonas | 85793826 | 72924752 | 1.1.1993 | 31.12.2005 | 6.2.2004 |
94/09/65/004 | Electrification of railway line Piraeus - Athens -Thessaloniki, Phase A | 39705882 | 33750000 | 14.6.1994 | 31.8.2003 | 13.2.2004 |
94/09/65/017-a | Egnatia, section: Peristeri-Anthochoriou tunnel | 5462612 | 4643219 | 13.7.1994 | 31.12.2003 | 23.2.2004 |
94/09/65/010 | New double railway line Thriassio Pedio - Eleusina - Korinthos, Phase A | 70588236 | 6000002 | 13.8.1994 | 31.7.2003 | 17.2.2004 |
93/09/65/00994/09/65/009 | Construction of new double railway line at the section Evangelismos-Leptokarya, Phase A | 307000000 | 260950000 | 1.1.1993 | 31.5.2003 | 17.2.2004 |
93/09/65/02494/09/65/024 | Motorway Thessaloniki - Nea Moudania | 33320589 | 26656471 | 1.1.1993 | 31.12.2003 | 2.3.2004 |
93/09/65/032 | Completion of the pier IV & V of the port Heraklion - Crete | 18344880 | 15593148 | 1.1.1993 | 31.12.2004 | 30.3.2004 |
HUNGARY — 2004
Project No | Title | Total cost(in EUR) | Cohesion Fund assistance(in EUR) | Planned start and finish of implementation | Date of Decision |
2004HU16CPE001 | The Budapest Central Municipal Wastewater Treatment Works and Collector Systems | 468710000 | 304661500 | 1.2.2005 | 31.12.2009 | 17.12.2004 |
2004HU16CPE002 | Development of the Wastewater Collection and Treatment in Zalaegerszeg Agglomeration | 48877968 | 36658476 | 1.3.2006 | 30.5.2009 | 14.12.2004 |
2004HU16CPE003 | Development of the Wastewater Collection and Treatment System of Veszprém and its Region (Middle Trans-Danubia - Közép-Dunántúl) | 29905000 | 22129700 | 1.12.2005 | 31.12.2009 | 14.12.2004 |
Project No | Title | Total cost(in EUR) | Cohesion Fund assistance(in EUR) | Planned start and finish of implementation | Date of Decision |
2004HU16CPT001 | Rehabilitation of Budapest-Cegled-Szolnok-Lőkösháza Railway Line | 134766400 | 107813120 | 1.4.2006 | 31.12.2007 | 21.12.2004 |
2004HU16CPT002 | Eastern Section of the MO Budapest Ring Road between National Road 4 and M3 | 334893000 | 284659050 | 1.10.2005 | 31.12.2007 | 17.12.2004 |
LATVIA — 2004
Project No | Title | Total cost(in EUR) | Cohesion Fund assistance(in EUR) | Planned start and finish of implementation | Date of Decision |
2004LV16CPA002 | Technical Assistance for project for Water Services Development in Latvian Municipalities | 8915496 | 7310707 | 1.4.2005 | 31.12.2009 | 27.12.2004 |
2004LV16CPE001 | Development of Water Services in Ventspils, Stage II | 21783620 | 18516077 | 1.3.2006 | 31.12.2009 | 28.12.2004 |
2004LV16CPE002 | Development of Water Services in Olaine and Jaunolaine | 10194700 | 8665495 | 1.11.2005 | 30.11.2008 | 28.12.2004 |
2004LV16CPE003 | Development of Water Services in Liepaja, Stage II | 25297487 | 21502863 | 1.9.2006 | 31.12.2009 | 28.12.2004 |
2004LV16CPE004 | Development of Water Services in Daugavpils, Stage II | 19318814 | 16420991 | 1.9.2006 | 31.12.2009 | 28.12.2004 |
2004LV16CPE005 | Solid Waste Management in the Zemgale Region | 6605212 | 5284169 | 1.6.2006 | 31.12.2008 | 28.12.2004 |
2004LV16CPE006 | Solid Waste Management in the Maliena Region | 5709133 | 4567306 | 1.3.2006 | 31.12.2008 | 27.12.2004 |
2000LV16PPE001 | Development of Water Services in Riga | 24300000 | 17010000 | | 31.12.2007 | 30.4.2004 |
2001LV16PPE006 | Commission Decision amending decision PH/2001/3809 of 14.9.2001 concerning the grant of assistance for Solid Waste Management in Ziemeļvidzeme Region | 4820000 | 3374000 | | 31.12.2005 | 29.11.2004 |
2000LV16PPE004 | Commission Decision amending decision PH/2001/2513 of 15.6.2001 concerning the grant of assistance for Solid Household Waste Management in Ventspils Region | 6190000 | 3033100 | | 31.12.2005 | 27.12.2004 |
Project No | Title | Total cost(in EUR) | Cohesion Fund assistance(in EUR) | Planned start and finish of implementation | Date of Decision |
2004LV16CPA001 | Technical Assistance for Transport Sector | 1535000 | 1304750 | 1.6.2005 | 1.6.2007 | 27.12.2004 |
2004LV16CPT001 | Improvements of the TEN Road Network, Project 1 | 106188000 | 90259800 | 1.5.2005 | 1.6.2007 | 27.12.2004 |
2004LV16CPT002 | Track Renewal on Sections of the East-West Railway Corridor | 89423077 | 46499997 | 1.7.2005 | 1.12.2009 | 27.12.2004 |
2000LV16PPT004 | Rēzekne II reception yard (Latvian East-West rail corridor) located in the district of Rēzekne | 10213347 | 7660010 | | 31.12.2006 | 12.3.2004 |
2000LV16PPT002 | Commission Decision amending decision DL/2003/3486 of 16 December 2003 concerning the grant of assistance for Improvements of links to Via Baltica (Airport Access Road (P133) and a related section on A10) | 7600000 | 5700000 | | 31.12.2006 | 28.12.2004 |
LITHUANIA — 2004
Title | Total cost(in EUR) | Cohesion Fund assistance(in EUR) | Planned start and finish of implementation | Date of Decision |
Nemunas Midland River Basin | 63995000 | 51196000 | 1.6.2005 | 31.12.2007 | 27.12.2004C(2004) 5715 |
Utena Regional waste management | 12945680 | 9709260 | 1.1.2006 | 31.12.2008 | 21.12.2004DL/2004/3639 |
TA Project preparation (modification) | 28830000 | 23572500 | 4.11.2004 | 31.12.2010 | 28.12.2004DL/2004/3818 |
Title | Total cost(in EUR) | Cohesion Fund assistance(in EUR) | Planned start and finish of implementation | Date of Decision |
Development TEN roads E85 and E272 | 36162352 | 30738000 | 1.5.2004 | 30.10.2006 | 23.12.2004C(2004) 5686 |
Development TEN E28 | 22720000 | 19312000 | 1.5.2004 | 30.10.2006 | 21.12.2004C(2004) 5508 |
Development corridor IXB | 54109411 | 45993000 | 1.6.2004 | 30.11.2006 | 21.12.2004C(2004) 5504 |
Development corridor IXD | 12073529 | 10262500 | 1.5.2004 | 30.10.2006 | 21.12.2004C(2004) 5525 |
Development corridor I (Via Baltica) | 24360000 | 20706000 | 1.5.2004 | 30.7.2006 | 20.12.2004C(2004) 5428 |
Modernisation Marshalling Y. Corr. IX | 21910000 | 18623500 | 1.4.2005 | 30.4.2009 | 21.12.2004DL/2004/3643 |
Rehabilitation of Kaunas Railway Tunnel | 18814000 | 15991900 | 1.4.2005 | 30.9.2007 | 23.12.2004C(2004) 5681 |
MALTA — 2004
Project No | Title | Total cost(in EUR) | Cohesion Fund assistance(in EUR) | Planned start and finish of implementation | Date of Decision |
CCI: 2004MT16CPE001 | Upgrading of the Sant'Antnin Waste treatment plant and material recycling and recovery facility | 16747500 | 11723250 | 1.4.2006 | 30.6.2008 | 27.12.2004 |
POLAND — 2004
Project No | Title | Total cost(in EUR) | Cohesion Fund assistance(in EUR) | Planned start and finish of implementation | Date of Decision |
2004PL16CPE001 | Będzin Waste Water Treatment and Water Supply | 28381900 | 21286425 | 2005 | 31.12.2009 | 17.12.2004 |
2004PL16CPE003 | Bydgoszcz Water Supply and Sewerage II | 137983658 | 99348234 | 2005 | 31.12.2009 | 21.12.2004 |
2004PL16CPE004 | Rationalisation of water and wastewater management in Bytom municipality | 61998707 | 49598966 | 2005 | 31.12.2009 | 17.12.2004 |
2004PL16CPE005 | Chrzanów Water Supply | 30098000 | 21670560 | 2005 | 31.12.2009 | 14.12.2004 |
2004PL16CPE007 | Grodzisk Mazowiecki water and waste water management | 15131075 | 11045685 | 2005 | 31.12.2009 | 14.12.2004 |
2004PL16CPE008 | Kalisz rearrangement of sewage disposal system | 15981843 | 7990922 | 2005 | 31.12.2008 | 14.12.2004 |
2004PL16CPE010 | Łódź Water Supply and Waste Water Treatment II | 142242710 | 71121355 | 2005 | 31.12.2009 | 17.12.2004 |
2004PL16CPE011 | Water and waste water management in Myslowice | 24153759 | 15458406 | 2005 | 31.12.2009 | 14.12.2004 |
2004PL16CPE013 | Otwock Water Supply and Sewerage System | 32372469 | 19747206 | 2005 | 31.12.2009 | 17.12.2004 |
2004PL16CPE014 | Programme of water and sewage management in Piaseczno | 43415749 | 31693497 | 2005 | 31.12.2009 | 17.12.2004 |
2004PL16CPE015 | Pszczyna Water Supply and Sewage System-Stage | 34456300 | 25842225 | 2005 | 31.12.2009 | 17.12.2004 |
2004PL16CPE016 | Water and wastewater management in Raciborz | 20503914 | 14557779 | 2005 | 31.12.2009 | 16.12.2004 |
2004PL16CPE017 | Modernisation and extension of water supply and sewerage system for the municipality of Radom | 41371894 | 26064293 | 2005 | 31.12.2009 | 16.12.2004 |
2004PL16CPE019 | Programme for Sewage Management in the region of Slupsk | 19597010 | 13717907 | 2005 | 31.12.2009 | 16.12.2004 |
2004PL16CPE020 | Water Supply, Sewerage and Sewage Treatment Systems in Starachowice | 19224598 | 13072726 | 2005 | 31.12.2009 | 16.12.2004 |
2004PL16CPE021 | Water and wastewater management programme in Tarnobrzeg | 15655000 | 12405798 | 2005 | 31.12.2009 | 16.12.2004 |
2004PL16CPE024 | Wastewater management for the City of Tychy | 100125200 | 75093900 | 2005 | 31.12.2009 | 22.12.2005 |
2004PL16CPE025 | Wastewater management for the Municipalities of Jastrzębie Zdrój, Mszana and Godów | 33895486 | 28472209 | 2005 | 31.12.2009 | 16.12.2004 |
2004PL16CPE026 | Water and waste water management in Wadowice agglomeration | 17609737 | 14968276 | 2005 | 31.12.2008 | 16.12.2004 |
2004PL16CPE027 | Rationalisation of water and wastewater manangement in Zabrze Municipality | 89672847 | 58287351 | 2005 | 31.12.2009 | 21.12.2004 |
2004PL16CPE029 | Wastewater manangement for Zielona Góra and Świdnica | 31346774 | 26644758 | 2004 | 31.12.2009 | 16.12.2004 |
2004PL16CPE031 | Water and Sewage Management Solution in Wroclaw - Phase II | 50251000 | 31155620 | 2005 | 31.12.2009 | 16.12.2004 |
Project No | Title | Total cost(in EUR) | Cohesion Fund assistance(in EUR) | Planned start and finish of implementation | Date of Decision |
2004PL16CPT001 | A2 motorway | 380600000 | 312092000 | 2004 | 31.12.2007 | 23.12.2005 |
2004PL16CPT002 | Construction of S-8 Expressway, section: Radzymin-Wyszkow including Wyszkow Bypass | 168913000 | 140197790 | 1.12.2004 | 31.12.2008 | 22.12.2005 |
2004PL16CPT003 | Construction of A-1 motorway, section: Sosnica-Gorzyczki | 233498150 | 193803465 | 30.3.2006 | 31.12.2009 | 22.12.2005 |
2004PL16CPT004 | Construction of A-4 motorway, section: Zgorzelec-Krzyzowa | 307367000 | 252040940 | 2005 | 31.12.2008 | 22.12.2004 |
2004PL16CPT005 | Modernisation of E59 railway line, section Wrocław-Rawicz (Stage I) | 30000000 | 25500000 | 2004 | 31.12.2007 | 27.12.2004 |
2004PL16CPT006 | Modernisation of E-65 railway line, section: Warszawa-Gdynia, Stage I in Poland | 42403200 | 36042720 | 31.12.2004 | 31.12.2009 | 27.12.2005 |
2004PL16CPT007 | Rehabilitation of the national road No 2, section: Siedlce-Terespol | 74805700 | 62088731 | 2004 | 31.12.2008 | 22.12.2004 |
2004PL16CPA001 | Technical assistence for transport sector | 4000000 | 3400000 | 31.1.2005 | 31.12.2009 | 15.12.2004 |
2004PL16CPA002 | Assistance in the field of railway projects co-financed within the Cohesion Fund | 2000000 | 1700000 | 2005 | 31.12.2009 | 15.12.2004 |
2000PL16PPT001 | Construction of A4 Motorway, section Kleszczow-Sosnica | 100500000 | 75375000 | 11.12.2000 | 31.12.2006 | 17.12.2004 |
2000PL16PPT002 | Modernisation of the E-20 Railway Line on section Mińsk Mazowiecki — Siedlce | 124595625 | 93446719 | 15.3.2001 | 31.12.2008 | 6.12.2004 |
2000PL16PPT003 | Modernisation of the E-20 Railway Line on section Rzepin — State border in Poland | 23033384 | 17275038 | 1.3.2001 | 31.12.2007 | 6.12.2004 |
2000PL16PPT007 | Pavemnt strengthening of National road No 7, section Gdansk - Jazowa including bridge over Vistula river in Kiezmark | 82832000 | 62124000 | 29.12.2000 | 31.12.2007 | 14.12.2004 |
2000PL16PPT008 | Pavement strengthening of state road No 4 section Krakow-Tarnow | 62233000 | 46674750 | 29.12.2000 | 31.12.2006 | 7.12.2004 |
2001PL16PPA005 | TA for prep for modernisation of the E 65-railway line, section Warsaw-Dzialdowo-Gdynia | 14900000 | 11175000 | 2.11.2001 | 31.12.2006 | 9.12.2004 |
2002PL16PPA007 | TA for project preparation for A4 motorway, section: Krzyzowa - Zgorzelec | 6625000 | 4968750 | 10.7.2002 | 31.12.2005 | 14.12.2004 |
PORTUGAL — 2004
Project No | Title | Total cost(in EUR) | Cohesion Fund assistance(in EUR) | Planned start and finish of implementation | Date of Decision |
1994PT16CPE022 | Alqueva I. Hydroelectric power station | 1168388122 | 64553443 | 1.1.1997 | 31.12.2004 | 29.6.2004 |
1996PT16CPE019 | Waste water from Vila Real de Sto Antonio | 14617666 | 12425016 | 19.6.1996 | 31.10.2006 | 9.8.2004 |
1997PT16CPE006 | Sewerage Greater Oporto South - Gaia II | 60441638 | 51375392 | 20.11.1977 | 30.4.2004 | 26.1.2004 |
2000PT16CPE004 | Sobreiras waste-water treatment plant | 32692032 | 10232606 | 1.1.2000 | 30.6.2003 | 7.5.2004 |
2000PT16CPE011 | Baixo Tâmega solid urban waste | 14624096 | 12430482 | 1.10.2000 | 30.12.2003 | 11.6.2004 |
2000PT16CPE012 | Alto Tâmega solid urban waste | 13522161 | 11493837 | 1.1.2001 | 31.12.2003 | 11.6.2004 |
2000PT16CPE015 | Cova da Beira solid urban waste-2nd phase | 16396870 | 13937340 | 1.8.2000 | 31.12.2005 | 19.5.2004 |
2001PT16CPE003 | Complementary measures for the treatment of solid urban waste 2001-EGF | 18150000 | 13594350 | 1.1.2001 | 31.12.2003 | 13.7.2004 |
2004PT16CPE002 | Planalto Beirão biodegradable urban waste - organic exploitation centre | 29211770 | 21908828 | 1.8.2004 | 1.6.2006 | 27.12.2004 |
2004PT16CPE003 | SIMRIA - Certima/Levira outfall | 12352923 | 5929403 | 1.7.2003 | 31.12.2006 | 30.11.2004 |
2004PT16CPE004 | Water supply and sewerage in the Ave valley 1st phase | 78955989 | 42873102 | 1.4.2004 | 31.12.2007 | 27.12.2004 |
2004PT16CPE005 | T.Montes/A.Douro water system 3rd phase | 58646468 | 49849498 | 12.7.2004 | 31.12.2006 | 14.12.2004 |
2004PT16CPE006 | Integrated water system Oeste 2nd phase | 66779130 | 46745392 | 16.3.2004 | 31.12.2006 | 30/11/2004, |
2004PT16CPE007 | Organic residues - Sintra/Cascais | 43880000 | 25450400 | 1.2.2004 | 31.12.2006 | 23.12.2004 |
2004PT16CPE008 | Integrated water system Oeste 3rd phase | 82636288 | 45449958 | 21.1.2004 | 31.12.2007 | 14.12.2004 |
2004PT16CPE009 | Leziria integrated water system 1st phase | 41878432 | 28447334 | 14.9.2004 | 31.12.2007 | 23.12.2004 |
2004PT16CPE010 | Biodegradable urban waste- Rebat/Resat composting | 10263000 | 5952540 | 11.10.2004 | 1.4.2007 | 27.12.2004 |
2004PT16CPE012 | Biodegradable urban waste- Amarsul composting | 39559982 | 23735989 | 1.7.2004 | 30.6.2007 | 14.12.2004 |
2004PT16CPE015 | Biodegradable urban waste- Amalga composting | 15129000 | 9228690 | 1.1.2005 | 30.6.2006 | 27.12.2004 |
2004PT16CPE017 | Biodegradable urban waste- Algar composting | 10207763 | 7451667 | 1.10.2004 | 1.6.2007 | 27.12.2004 |
Project No | Title | Total cost(in EUR) | Cohesion Fund assistance(in EUR) | Planned start and finish of implementation | Date of Decision |
2000PT16CPT001 | Northern line V - Albergaria | 142084956 | 113667965 | 1.2.2000 | 30.9.2006 | 26.10.2004 |
2000PT16CPT002 | Northern line V - Quintans/Ovar | 125699556 | 100559645 | 1.4.2000 | 31.12.2006 | 4.11.2004 |
2000PT16CPT008 | IP3 - Castro Daire tunnel 1st phase. | 14398544 | 12238762 | 1.1.2001 | 30.6.2003 | 24.8.2004 |
2000PT16CPT013 | Northern line - Entrecampos/Chelas | 49004255 | 39203403 | 7.10.1999 | 30.12.2003 | 28.4.2004 |
2003PT16CPT008 | Minho line - Nine/Btaga | 77777151 | 47444062 | 30.8.2002 | 30.12.2006 | 27.2.2004 |
2003PT16CPT011 | Lajes passenger terminal - Azores | 17948598 | 13820420 | 31.1.2003 | 31.8.2005 | 19.2.2004 |
2003PT16CPT012 | Oporto underground - Airport link | 98678780 | 74009085 | 1.12.2001 | 30.11.2005 | 24.3.2004 |
2004PT16CPT001 | Lisbon underground- Gil/Airport link | 194687529 | 165484399 | 2.2.2005 | 31.8.2004 | 22.12.2004 |
2004PT16CPT002 | L.Nord VII-Vila Franca/Vale de Santarém | 188935000 | 151148000 | 1.1.2001 | 31.12.2007 | 17.12.2004 |
2004PT16CPT003 | Torre de Moncorvo-IP2 link road | 13663690 | 11614136 | 15.9.2003 | 15.9.2005 | 14.12.2004 |
SLOVAKIA — 2004
Project No | Title | Total cost(in EUR) | Cohesion Fund assistance(in EUR) | Planned start and finish of implementation |
2004SK16CPE001 | Water Supply and Sewerage of Horne Kysuce | 54339000 | 43471200 | 14.7.2004 | 31.12.2009 |
2004SK16CPE002 | Vranov - Drinking Water and Sewerage in the Topla River Basin | 42525800 | 34020640 | 2.7.2004 | 31.12.2010 |
2004SK16CPE003 | Basin of River Vah and Danube - Discharge and Treatment of Waste Water and Supply of Drinking Water. Agglomeration Galanta | 29425000 | 19126250 | 5.7.2004 | 31.8.2009 |
2004SK16CPE004 | Basin of River Vah and Danube - Discharge and Treatment of Waste Water and Supply of Drinking Water. Agglomeration Samorin | 23651000 | 15373150 | 5.7.2004 | 31.8.2009 |
2004SK16CPE005 | Presov - Drinking Water and Sewerage in the Basin of Torysa River | 50708260 | 40566608 | 2.7.2004 | 31.12.2010 |
2000SK16PPE001 | Trencin Right bank Wastewater Treatment Plant | 8880405 | 7936732 | 5.12.2000 | 30.6.2006 |
2001SK16PPE007 | Sewerage and Wastewater Treatment Plant in the Town Martin and region Dolny Turiec | 12295676 | 6024881 | 17.12.2001 | 31.12.2006 |
2002SK16PPE008 | South East Zemplin Drinking Water and Sewerage | 23610000 | 16527000 | 13.12.2002 | 31.12.2007 |
2002SK16PPE009 | Environmental Improvement of the Liptov Region | 10520000 | 5260000 | 13.12.2002 | 31.12.2007 |
2002SK16PPE010 | Povazska Bystrica Wastewater Treatment Plant and Sewerage System | 12300000 | 6150000 | 13.12.2002 | 31.12.2007 |
2002SK16PPE011 | Zilina Wastewater Treatment Plant Intensification and Sewerage upgrade | 19608000 | 9804000 | 13.12.2002 | 31.12.2007 |
Project No | Title | Total cost(in EUR) | Cohesion Fund assistance(in EUR) | Planned start and finish of implementation |
2002SK16PPT004 | Construction of Motorway D 1, Section Mengusovce - Jánovce | 190246000 | 140782040 | 11.3.2003 | 31.10.2009 |
2004SK16CPT001 | Modernisation of Railway Track Trnava — Nove Mesto nad Vahom, zkm 47,550 -100,500 at a speed 160 km/h — stage II — Piestany — Nove Mesto nad Vahom | 89316000 | 66093840 | 5.7.2004 | 31.12.2009 |
SLOVENIA — 2004
Project No | Title | Total cost(in EUR) | Cohesion Fund assistance(in EUR) | Planned start and finish of implementation | Date of Decision |
2004SI16CPE001 | Regional Waste Management Centre Celje | 14795800 | 8777480 | 1.9.2004 | 1.11.2008 | 20.12.2004 |
2004SI16CPE002 | Waste Water Collection and Treatment of Coastal Sea River basin | 26475468 | 15241927 | 1.7.2004 | 31.12.2009 | 20.12.2004 |
2004SI16CPT001 | Construction of the Smednik — Krška vas Motorway | 63414884 | 42487972 | 5.8.2003 | 28.2.2007 | 20.12.2004 |
2004SI16CPT002 | Modernisation of the Pragesko-Ormuz railway line | 27395200 | 14519456 | 1.2.2005 | 31.9.2008 | 20.12.2004 |
SPAIN — 2004
Project No | Title | Total cost(in EUR) | Cohesion Fund assistance(in EUR) | Planned start and finish of implementation | Date of Decision |
2003ES16CPT028 | Cantabria-Meseta CN-611 motorway - Molledo-Pesquera section | 153332140 | 130332319 | 20.6.2003 | 31.5.2007 | C(2004)4136 18.10.2004 |
2003ES16CPT029 | East-coast motorway to France via Aragon-Teruel-Sta. Eulalia del Campo section | 63875224 | 54293940 | 21.1.2002 | 31.12.2006 | C(2004)3589 21.9.2004 |
2004ES16CPT001 | Madrid-Barcelona high-speed line (Martorell-Barcelona section) Vallés-Castellbisbal-El Papiol connection subsection | 63044715 | 45549807 | 2.4.2003 | 30.9.2006 | C(2004)3806 5.10.2004 |
2004ES16CPT002 | Madrid-Barcelona high-speed line (Martorell-Barcelona section) El Papiol-S. Vincent dels Horts-Sta. Coloma de Cervelló subsection | 41778831 | 30185205 | 20.5.2003 | 30.9.2006 | C(2004)3803 5.10.2004 |
2004ES16CPT003 | Madrid-Barcelona high-speed line (Martorell-Barcelona section) goods branch from the port of Barcelona Sant Joan Despí-Hospitalet-Can Tunis subsection | 69168327 | 49974116 | 16.7.2003 | 30.4.2006 | C(2004)3804 5.10.2004 |
2004ES16CPT007 | East-coast high-speed line - Motilla del Palancar-Valencia section. Requena-Siete Aguas subsection | 42018572 | 33614858 | 30.7.2003 | 28.2.2007 | C(2004)4652 29.11.2004 |
2004ES16CPT008 | East-coast high-speed line - Xátiva-Valencia section. Xátiva-Novelé-Xátiva subsection | 43031825 | 34425459 | 9.8.2003 | 31.1.2007 | C(2004)4870 7.12.2004 |
2004ES16CPT009 | East-coast high-speed line - Access to Alicante/Elche. Accesses to Alicante | 25037916 | 20030333 | 1.6.2003 | 31.10.2007 | C(2004)4755 3.12.2004 |
2004ES16CPT010 | East-coast high-speed line - M. del Palancar-Valencia section. M.del Palancar-Iniesta-Minglanilla subsection | 58917206 | 47133764 | 9.8.2003 | 31.10.2007 | C(2004)4736 3.12.2004 |
2004ES16CPT011 | East-coast high-speed line - Cuenca-Albacete section. Monteagudo de Salinas-Motilla del Palancar subsection | 50793613 | 40634891 | 30.7.2003 | 31.10.2007 | C(2004)4865 7.12.2004 |
2004ES16CPT012 | East-coast high-speed line - Cuenca-Albacete section. Tendero tunnel | 27408908 | 21927126 | 6.10.2003 | 31.12.2007 | C(2004)4759 3.12.2004 |
2004ES16CPT013 | East-coast high-speed line - Cuenca-Albacete section. Villagordo del Júcar-La Gineta subsection | 45021325 | 36017060 | 26.9.03 | 31.3.2008 | C(2004)4740 3.12.2004 |
2004ES16CPT014 | East-coast high-speed line- Cuenca-Albacete section. La Gineta-Albacete subsection | 24424216 | 19539372 | 8.8.2003 | 31.12.2007 | C(2004)4753 3.12.2004 |
2004ES16CPT015 | East-coast high-speed line- Cuenca-Albacete section. Fuentes-Monteagudo de Salinas subsection | 48583831 | 38867065 | 6.10.2003 | 31.3.2008 | C(2004)4857 7.12.2004 |
2004ES16CPT016 | East-coast high-speed line - Cuenca-Albacete section. Gabaldón-V. de la Jara-Villagordo del Júcar subsection | 53263153 | 42610522 | 30.7.2003 | 31.12.2007 | C(2004)4858 7.12.2004 |
2004ES16CPT018 | East-coast high-speed line - M. del Palancar-Valencia section. Venta del Moro-Caudete de las Fuentes subsection | 17794962 | 14235970 | 6.10.2003 | 31.5.2007 | C(2004)4747 3.12.2004 |
2003ES16CPT015 | Enlargement of the Port of Castellón. South dock - 1st phase | 28688000 | 14174741 | 1.7.2001 | 31.12.2006 | C(2004)2445 25.6.2004 |
2004ES16CPT004 | Extension of the breakwater in the Port of Tarragona | 45175808 | 22587904 | 1.4.2004 | 31.12.2008 | C(2004)1941 19.5.2004 |
2004ES16CPT006 | New quays for the Raos central breakwater (Santander) | 23961127 | 9584451 | 1.4.2003 | 31.12.2008 | C(2004)3563 17.9.2004 |
2004ES16CPT019 | New lock in the Port of Seville | 142755396 | 62812374 | 1.12.2004 | 31.12.2009 | C(2004)4837 6.12.2004 |
2004ES16CPT021 | Extension of the Port of Gijón | 450000000 | 247500000 | 1.11.2004 | 31.12.2009 | C(2004)5057 13.12.2004 |
2004ES16CPT022 | Extension of the levelled area by the cargo bays at Palma de Mallorca | 18529200 | 14563951 | 1.1.2003 | 31.12.2007 | C(2004)5683 23.12.2004 |
2004ES16CPT023 | Extension and improvement of the Cos Nou quays - Port of Mahón | 17560458 | 10536275 | 1.9.2004 | 31.12.2008 | C(2004)4750 3.12.2004 |
2004ES16CPT024 | Extension of the docking area of the eastern dock and of Xitá Interior - Port of Valencia | 97000000 | 20205100 | 30.11.2003 | 31.12.2008 | C(2004)4743 3.12.2004 |
Project No | Title | Total cost(in EUR) | Cohesion Fund assistance(in EUR) | Planned start and finish of implementation | Date of Decision |
2002ES16CPE035 | Underground pipeline from the Guadarrama well field and Griñón drinking water treatment plant | 77890648 | 46734389 | 1.9.2004 | 31.12.2008 | C(2004)3565 17.9.2004 |
2002ES16CPE050 | Supply of drinking water to the Ribera district - Partial Draft 2 | 15127394 | 12101915 | 1.5.2000 | 31.12.2006 | C(2004)3562 17.9.2004 |
2003ES16CPE013 | Supply of water in Alcañiz, Calanda, Castelaserás and other areas (Matarraña basin) | 7179867 | 6102888 | 1.5.2004 | 31.12.2008 | C(2004)4757 3.12.2004 |
2003ES16CPE014 | Supply of water to Lérida and district from the Santa Ana dam (2nd phase) | 28300627 | 14150313 | 1.12.2004 | 31.12.2009 | C(2004)3566 17.9.2004 |
2003ES16CPE026 | Supply of water to Cantabria (Santander and Torrelavega areas) | 59149606 | 38447244 | 1.9.2003 | 31.12.2007 | C(2004)1998 28.5.2004 |
2003ES16CPE034 | Actions in the drinking water treatment plant in San Isidro- Valladolid | 9732009 | 7785607 | 1.11.2003 | 31.12.2007 | C(2004)594 20.02.2004 |
2004ES16CPE005 | Supply of water to communities in Castile-Leon: Valle de Esgueva 2nd phase - Benavente and Valle del Tera | 36257148 | 23567146 | 1.7.2003 | 31.12.2009 | C(2004)4104 15.10.2004 |
2004ES16CPE009 | Increase in the supply of water to the Mancomunidad de Algodor | 15500000 | 13175000 | 15.5.2004 | 31.12.2006 | C(2004)5433 20.12.2004 |
2004ES16CPE013 | Supply of water in the Guadalquivir basin - 2004 | 13699537 | 10959630 | 1.1.2004 | 31.12.2007 | C(2004)4452 15.11.2004 |
2004ES16CPE018 | Supply of water to communities in Castile-Leon: Mancomunidad vecindad de Burgos and bajo Arlanza | 12074156 | 7848201 | 1.6.2003 | 31.12.2008 | C(2004)5131 14.12.2004 |
2004ES16CPE022 | Improvement in the supply of water to the coastal districts of the outer western area of Asturias | 32151528 | 22506070 | 1.10.2004 | 31.12.2007 | C(2004)4498 17.11.2004 |
2004ES16CPE023 | Improvement in the supply of water to Oviedo. Cabornio drinking water treatment plant section - El Cristo reservoir Ribera de Arriba and Oviedo | 15495737 | 9917272 | 1.09.2004 | 31.12.2008 | C(2004)5684 23.12.2004 |
2004ES16CPE029 | Supply of water in the northern basin - 2004 | 7359126 | 5887301 | 1.11.2004 | 31.12.2007 | C(2004)4499 17.11.2004 |
2004ES16CPE030 | Supply of water in the Tagus basin - 2004 | 2017552 | 1614042 | 1.1.2004 | 31.12.2007 | C(2004)5138 14.12.2004 |
2003ES16CPE007 | Waste management in the Autonomous Community of Andalusia - 2003 | 16401597 | 13121278 | 1.10.2003 | 31.12.2007 | C(2004)598 20.2.2004 |
2003ES16CPE021 | Sorting plants and transfer plants - Andalusia - 2003 | 13151000 | 10520800 | 2.1.2002 | 31.12.2007 | C(2004)1758 28.4.2004 |
2003ES16CPE022 | Preparation stations and collection centres - Andalusia - 2003 | 25097000 | 20077600 | 2.1.2003 | 31.12.2007 | C(2004)1916 17.5.2004 |
2003ES16CPE023 | Coverage of landfills - Andalusia - 2003 | 15892017 | 12713614 | 2.1.2003 | 31.12.2007 | C(2004)2148 14.6.2004 |
2003ES16CPE033 | Urban waste management in the Autonomous Community of Castile-Leon | 15188114 | 12150491 | 1.1.2003 | 31.12.2006 | C(2004)596 20.2.2004 |
2003ES16CPE035 | Vitrification plant for incineration ash from the Melilla incineration plant | 1257210 | 1005768 | 1.12.2003 | 31.12.2006 | C(2004)1418 7.4.2004 |
2004ES16CPE003 | Alicante municipal waste treatment plant | 14401349 | 11521079 | 1.10.2003 | 31.12.2006 | C(2004)2331 21.6.2004 |
2004ES16CPE031 | Waste management in Castile-La Mancha - Group 2004 | 2900232 | 2320186 | 1.1.2004 | 31.12.2007 | C(2004)5140 14.12.2004 |
2002ES16CPE055 | Waste-water disposal in the Guadalquivir basin - 2002 - Group II | 22873279 | 18298623 | 1.10.2002 | 31.12.2007 | C(2004)2330 21.6.2004 |
2003ES16CPE004 | Extension and improvement of waste-water treatment in the Jucar basin in Valencia - Group IV | 28424743 | 22739794 | 1.10.2003 | 31.12.2006 | C(2004)3564 17.9.2004 |
2003ES16CPE012 | Waste-water disposal and interceptors in the Elche municipal district | 10869452 | 8695562 | 1.4.2004 | 31.12.2007 | C(2004)4866 7.12.2004 |
2004ES16CPE002 | The Alt Maresme Nord waste-water disposal system in the municipalities of Pineda del Mar and Torderá | 21184775 | 14405647 | 1.1.2004 | 31.12.2007 | C(2004)2149 14.6.2004 |
2004ES16CPE008 | Waste-water disposal in León, Valladolid and Ponferrada 2004 | 16837397 | 13469918 | 1.10.2000 | 31.12.2007 | C(2004)4653 29.11.2004 |
2004ES16CPE010 | Improvement in disposal and treatment in Ferrol. Cabo Prioriño waste-water treatment plant (A Coruña) | 39000000 | 33150000 | 1.9.2004 | 31.12.2008 | C(2004)4920 8.12.2004 |
2004ES16CPE011 | North (section III) and North-South interceptors in the Autonomous City of Ceuta | 4274980 | 3419984 | 1.1.2005 | 31.12.2007 | C(2004)4037 13.10.2004 |
2004ES16CPE014 | Santoña-Laredo-Colindres general interceptor sewer. Argoños-Santoña-Gama section | 19993177 | 16994200 | 1.6.2004 | 31.12.2008 | C(2004)5515 21.12.2004 |
2004ES16CPE015 | Santoña-Laredo-Colindres general interceptor sewer. Santoña-Laredo section | 37611000 | 31969350 | 1.6.2004 | 31.12.2008 | C(2004)5513 21.12.2004 |
2004ES16CPE016 | Santoña-Laredo-Colindres general interceptor sewer. Laredo-Colindres and general sewer section. Laredo | 22377261 | 19020672 | 1.6.2004 | 31.12.2008 | C(2004)5401 17.12.2004 |
2004ES16CPE017 | Improvements in treatment and disposal at A Coruña: Bens submarine outlet | 20200000 | 17170000 | 1.12.2004 | 31.12.2008 | C(2004)3746 4.10.2004 |
2004ES16CPE019 | Lugo waste-water treatment plant | 44500000 | 37825000 | 1.6.2004 | 31.12.2008 | C(2004)4497 17.11.2004 |
2004ES16CPE020 | Xagó submarine outlet for waste-water disposal in Avilés, Castrillón, Corvera and Gozón | 23800000 | 15470000 | 1.12.2004 | 31.12.2008 | C(2004)4284 26.10.2004 |
2004ES16CPE024 | Waste-water disposal in the Tagus basin 2004 | 34022003 | 27217602 | 7.7.2004 | 31.12.2007 | C(2004)5139 14.12.2004 |
2004ES16CPE028 | Novelda and Monforte de Cid interceptors and waste-water treatment plant | 15348997 | 12124649 | 1.8.2004 | 31.12.2009 | C(2004)4860 7.12.2004 |
2004ES16CPA001 | Technical assistance for remote sensing techniques for programming Mediterranean basins | 720000 | 612000 | 1.6.2004 | 21.5.2006 | C(2004)3802 5.10.2004 |
2004ES16CPE004 | Technical assistance for the study and drafting of the project to supply water from the Alberche to settlements in Alto Tiétar | 1392000 | 1183200 | 1.10.2003 | 1.6.2006 | C(2004)2126 11.6.2004 |
2004ES16CPE027 | Drafting of the project for the supply of water to population centres in the Matarraña basin | 388590 | 330301 | 1.9.2004 | 31.12.2006 | C(2004)4035 13.10.2004 |
2004ES16CPE032 | Use of Delphi analysis in the Júcar and Segura basins | 650000 | 552500 | 1.10.2004 | 31.5.2006 | C(2004)4501 17.11.2004 |
M1999ES16CPE001 | Casares de Arbás barrier | 1971059 | 1675400 | | 31.12.2006 | C(2004)951 17.3.2004 |
M2000ES16CPE008 | Water supply actions in the Guadiana basin: Colada barrier | 3123861 | 2342896 | | 31.12.2007 | C(2004)5694 24.12.2004 |
M2000ES16CPE113 | Supply of water in the Ebro basin 2001 - Group I | 957000 | 765600 | | 31.12.2005 | C(2004)995 19.3.2004 |
M97ES16CPE063 | Desalination plant in the new Cartagena canal | 13439008 | 11423156 | | 31.12.2006 | C(2004)1139 24.3.2004 |
M2002ES16CPE028 | Waste management in Valencia - 2002 | 5081289 | 4065030 | | 31.12.2006 | C(2004)2187 16.6.2004 |
M2002ES16CPE064 | Environmental improvements in waste treatment in Catalonia | 7118071 | 5694457 | | 31.12.2007 | C(2004)4650 26.11.2004 |
M2000ES16CPE006 | Disposal and treatment measures in the Júcar basin | 5378874 | 4303099 | | 31.12.2005 | C(2004)1939 19.5.2004 |
M2000ES16CPE036 | Waste-water disposal and treatment in Bierzo Bajo | 10600000 | 9010000 | | 31.12.2006 | C(2004)1935 19.5.2004 |
M2000ES16CPE038 | Waste-water disposal and treatment in Lugo and Ourense | 2700000 | 2295000 | | 31.12.2005 | C(2004)994 19.3.2004 |
M2000ES16CPE058 | Waste-water disposal and supply of water in the Segura basin 2001 | 440651 | 352521 | | 31.12.2006 | C(2004)3110 5.8.2004 |
M2000ES16CPE063 | Waste-water disposal and treatment in the Louro river basin | 3800000 | 3230000 | | 31.12.2006 | C(2004)753 3.3.2004 |
M2000ES16CPE082 | Waste-water disposal and treatment in local communities in Catalonia (Ebro basin - Group 2000) | 1897983 | 1518386 | | 31.12.2007 | C(2004)3111 5.8.2004 |
M2001ES16CPE019 | Waste-water disposal in the southern basin - 2001 - Group I | 2041436 | 1633150 | | 31.12.2007 | C(2004)3516 13.9.2004 |
M2001ES16CPE035 | Waste-water disposal in the Tagus basin - 2001 - Group II | 8233562 | 6586848 | | 31.12.2006 | C(2004)5803 28.12.2004 |
M2003ES16CPE015 | Waste-water disposal and treatment in the inland basins in Catalonia - 2003 - Group I | 1170420 | 936336 | | 31.12.2008 | C(2004)4842 6.12.2004 |
M98.11.61.004 | Waste-water treatment plant for the middle and upper catchment area of Arroyo Culebro - Fuenlabrada section | 4418504 | 3755728 | | 31.12.2007 | C(2004)3555 27.9.2004 |
M2001ES16CPA001 | Technical assistance for the management of the Cohesion Fund 2000-2006 | 900000 | 765000 | | 31.12.2008 | C(2004)5723 27.12.2004 |
--------------------------------------------------
