COMMISSION REGULATION (EC) No 3129/94 of 20 December 1994 amending Regulation (EEC) No 2273/93 determining the intervention centres for cereals following the accession of Austria, Finland and Sweden
THE COMMISSION OF THE EUROPEAN COMMUNITIES,
Having regard to the Treaty establishing the European Community,
Having regard to the Act of Accession of Norway, Austria, Finland and Sweden (1), and in particular Article 169 (2) thereof,
Whereas Commission Regulation (EEC) No 2273/93 (2), as amended by Regulation (EC) No 2202/94 (3), which remains valid beyond 1 January 1995, must be brought into line with the provisions of the Act of Accession;
Whereas, pursuant to Article 2 (3) of the Treaty of Accession (4), the institutions of the European Union may adopt before accession the measures referred to in Article 169 of the Act of Accession, which will enter into force subject to and on the date of entry into force of the Treaty of Accession,
HAS ADOPTED THIS REGULATION:
Article 1
The Annex to Regulation (EEC) No 2273/93 is supplemented by the intervention centres listed in the Annex to this Regulation and the indications relating thereto.
Article 2
This Regulation shall enter into force on the date of and subject to the entry into force of the Treaty of Accession of Norway, Austria, Finland and Sweden.
This Regulation shall be binding in its entirety and directly applicable in all Member States.
Done at Brussels, 20 December 1994.
For the Commission
René STEICHEN
Member of the Commission
(1) OJ No C 241, 29. 8. 1994, p. 21.
(2) OJ No L 207, 18. 8. 1993, p. 1.
(3) OJ No L 236, 10. 9. 1994, p. 11.
(4) OJ No C 241, 29. 8. 1994, p. 9.
ANNEX
"" ID="1">'OESTERREICH"> ID="1">Absdorf> ID="2">+> ID="3"> > ID="4">+> ID="5"> > ID="6"> > ID="7"> "> ID="1">Aschach> ID="2">+> ID="3"> > ID="4">+> ID="5"> > ID="6"> > ID="7"> "> ID="1">Dobermannsdorf> ID="2">+> ID="3"> > ID="4">+> ID="5"> > ID="6"> > ID="7"> "> ID="1">Ebreichsdorf> ID="2">+> ID="3"> > ID="4">+> ID="5"> > ID="6"> > ID="7"> "> ID="1">Enns> ID="2">+> ID="3"> > ID="4">+> ID="5"> > ID="6"> > ID="7"> "> ID="1">Fuerstenfeld> ID="2"> > ID="3"> > ID="4"> > ID="5"> > ID="6">+> ID="7"> "> ID="1">Geinberg> ID="2"> > ID="3"> > ID="4">+> ID="5"> > ID="6"> > ID="7"> "> ID="1">Hollabrunn> ID="2">+> ID="3"> > ID="4">+> ID="5">+> ID="6"> > ID="7"> "> ID="1">Horn> ID="2">+> ID="3"> > ID="4">+> ID="5"> > ID="6"> > ID="7"> "> ID="1">Klagenfurt> ID="2"> > ID="3"> > ID="4"> > ID="5"> > ID="6">+> ID="7"> "> ID="1">Korneuburg> ID="2">+> ID="3"> > ID="4">+> ID="5"> > ID="6"> > ID="7"> "> ID="1">Krems> ID="2">+> ID="3"> > ID="4">+> ID="5"> > ID="6">+> ID="7"> "> ID="1">Laa/Thaya> ID="2">+> ID="3"> > ID="4">+> ID="5"> > ID="6"> > ID="7"> "> ID="1">Lannach/Graz> ID="2"> > ID="3"> > ID="4">+> ID="5"> > ID="6">+> ID="7"> "> ID="1">Linz> ID="2">+> ID="3">+> ID="4">+> ID="5"> > ID="6">+> ID="7"> "> ID="1">Mattersburg> ID="2">+> ID="3"> > ID="4">+> ID="5"> > ID="6"> > ID="7"> "> ID="1">Mistelbach> ID="2">+> ID="3"> > ID="4">+> ID="5"> > ID="6"> > ID="7"> "> ID="1">Oberpullendorf> ID="2">+> ID="3"> > ID="4"> > ID="5"> > ID="6"> > ID="7"> "> ID="1">Parndorf> ID="2">+> ID="3">+> ID="4">+> ID="5"> > ID="6"> > ID="7"> "> ID="1">Poechlarn> ID="2">+> ID="3"> > ID="4"> > ID="5"> > ID="6"> > ID="7"> "> ID="1">St. Andrae> ID="2">+> ID="3"> > ID="4">+> ID="5"> > ID="6"> > ID="7"> "> ID="1">St. Poelten> ID="2">+> ID="3"> > ID="4"> > ID="5"> > ID="6"> > ID="7"> "> ID="1">Untersiebenbrunn> ID="2">+> ID="3">+> ID="4">+> ID="5">+> ID="6"> > ID="7"> "> ID="1">Waidhofen/Th.> ID="2">+> ID="3">+> ID="4"> > ID="5"> > ID="6"> > ID="7"> "> ID="1">Weitersfeld> ID="2">+> ID="3">+> ID="4">+> ID="5"> > ID="6"> > ID="7"> "> ID="1">Wien-Albern> ID="2">+> ID="3"> > ID="4">+> ID="5"> > ID="6">+> ID="7"> "> ID="1">Zwettl> ID="2"> > ID="3">+> ID="4"> > ID="5"> > ID="6"> > ID="7"> "> ID="1">SUOMI"> ID="1">Helsinki> ID="2">+> ID="3">+> ID="4">+> ID="5"> > ID="6"> > ID="7"> "> ID="1">Joensuu> ID="2"> > ID="3">+> ID="4">+> ID="5"> > ID="6"> > ID="7"> "> ID="1">Kokemaeki> ID="2">+> ID="3">+> ID="4">+> ID="5"> > ID="6"> > ID="7"> "> ID="1">Koria> ID="2">+> ID="3">+> ID="4">+> ID="5"> > ID="6"> > ID="7"> "> ID="1">Koskenkorva> ID="2"> > ID="3">+> ID="4">+> ID="5"> > ID="6"> > ID="7"> "> ID="1">Kotka> ID="2">+> ID="3">+> ID="4">+> ID="5"> > ID="6"> > ID="7"> "> ID="1">Kuopio> ID="2"> > ID="3">+> ID="4">+> ID="5"> > ID="6"> > ID="7"> "> ID="1">Lahti> ID="2">+> ID="3">+> ID="4">+> ID="5"> > ID="6"> > ID="7"> "> ID="1">Loimaa> ID="2">+> ID="3">+> ID="4">+> ID="5"> > ID="6"> > ID="7"> "> ID="1">Loviisa> ID="2">+> ID="3">+> ID="4">+> ID="5"> > ID="6"> > ID="7"> "> ID="1">Mustio> ID="2">+> ID="3">+> ID="4">+> ID="5"> > ID="6"> > ID="7"> "> ID="1">Naantali> ID="2">+> ID="3">+> ID="4">+> ID="5"> > ID="6"> > ID="7"> "> ID="1">Nokia> ID="2">+> ID="3">+> ID="4">+> ID="5"> > ID="6"> > ID="7"> "> ID="1">Oulu> ID="2"> > ID="3">+> ID="4">+> ID="5"> > ID="6"> > ID="7"> "> ID="1">Peltosalmi> ID="2"> > ID="3">+> ID="4">+> ID="5"> > ID="6"> > ID="7"> "> ID="1">Pernioe> ID="2">+> ID="3">+> ID="4">+> ID="5"> > ID="6"> > ID="7"> "> ID="1">Pieksaemaeki> ID="2"> > ID="3">+> ID="4">+> ID="5"> > ID="6"> > ID="7"> "> ID="1">Rauma> ID="2">+> ID="3">+> ID="4">+> ID="5"> > ID="6"> > ID="7"> "> ID="1">Seinaejoki> ID="2"> > ID="3">+> ID="4">+> ID="5"> > ID="6"> > ID="7"> "> ID="1">Turenki> ID="2">+> ID="3">+> ID="4">+> ID="5"> > ID="6"> > ID="7"> "> ID="1">Vainikkala> ID="2">+> ID="3">+> ID="4">+> ID="5"> > ID="6"> > ID="7"> "> ID="1">Vaasa> ID="2"> > ID="3">+> ID="4">+> ID="5"> > ID="6"> > ID="7"> "> ID="1">Ylivieska> ID="2"> > ID="3">+> ID="4">+> ID="5"> > ID="6"> > ID="7"> "> ID="1">SVERIGE"> ID="1">Helsingborg> ID="2">+> ID="3">+> ID="4">+> ID="5"> > ID="6"> > ID="7"> "> ID="1">Norrkoeping-Djuroen> ID="2">+> ID="3">+> ID="4">+> ID="5"> > ID="6"> > ID="7"> "> ID="1">Stockholm> ID="2">+> ID="3">+> ID="4">+> ID="5"> > ID="6"> > ID="7"> "> ID="1">Uddevalla> ID="2">+> ID="3">+> ID="4">+> ID="5"> > ID="6"> > ID="7"> '">
