Commission Regulation (EC) No 1647/2005
of 10 October 2005
establishing the standard import values for determining the entry price of certain fruit and vegetables
THE COMMISSION OF THE EUROPEAN COMMUNITIES,
Having regard to the Treaty establishing the European Community,
Having regard to Commission Regulation (EC) No 3223/94 of 21 December 1994 on detailed rules for the application of the import arrangements for fruit and vegetables [1], and in particular Article 4(1) thereof,
Whereas:
(1) Regulation (EC) No 3223/94 lays down, pursuant to the outcome of the Uruguay Round multilateral trade negotiations, the criteria whereby the Commission fixes the standard values for imports from third countries, in respect of the products and periods stipulated in the Annex thereto.
(2) In compliance with the above criteria, the standard import values must be fixed at the levels set out in the Annex to this Regulation,
HAS ADOPTED THIS REGULATION:
Article 1
The standard import values referred to in Article 4 of Regulation (EC) No 3223/94 shall be fixed as indicated in the Annex hereto.
Article 2
This Regulation shall enter into force on 11 October 2005.
This Regulation shall be binding in its entirety and directly applicable in all Member States.
Done at Brussels, 10 October 2005.
For the Commission
J. M. Silva Rodríguez
Director-General for Agriculture and Rural Development
[1] OJ L 337, 24.12.1994, p. 66. Regulation as last amended by Regulation (EC) No 386/2005 (OJ L 62, 9.3.2005, p. 3).
--------------------------------------------------
ANNEX
to Commission Regulation of 10 October 2005 establishing the standard import values for determining the entry price of certain fruit and vegetables
(EUR/100 kg) |
CN code | Third country code | Standard import value |
07020000 | 052 | 68,9 |
204 | 82,9 |
999 | 75,9 |
07070005 | 052 | 87,7 |
999 | 87,7 |
07099070 | 052 | 101,8 |
999 | 101,8 |
08055010 | 052 | 66,3 |
382 | 63,3 |
388 | 65,3 |
524 | 67,9 |
528 | 61,9 |
999 | 64,9 |
08061010 | 052 | 82,6 |
388 | 79,9 |
400 | 215,8 |
999 | 126,1 |
08081080 | 388 | 84,9 |
400 | 79,7 |
508 | 26,4 |
512 | 76,3 |
720 | 51,9 |
800 | 177,3 |
804 | 78,2 |
999 | 82,1 |
08082050 | 052 | 91,9 |
388 | 58,9 |
720 | 58,5 |
999 | 69,8 |
[1] Country nomenclature as fixed by Commission Regulation (EC) No 750/2005 (OJ L 126, 19.5.2005, p. 12). Code "999" stands for "of other origin".
--------------------------------------------------
