Information relating to the entry into force of the Agreement between the European Community and Canada on trade in wines and spirit drinks
--------------------------------------------------
[1] OJ L 35 of 6.2.2004, p. 3.
