Removal from the register of Case C-472/04 [1]
(2005/C 330/27)
Language of the case: Italian
By order of 7 September 2005, the President of the Court of Justice (Fifth Chamber) of the European Communities has ordered the removal from the register of Case C-472/04: Commission of the European Communities
v Italian Republic.
[1] OJ C 6, 8.1.2005.
--------------------------------------------------
