Commission communication in the framework of the implementation of the Council Directive 89/686/EEC of 21 December 1989 on the approximation of the laws of the Member States relating to personal protective equipment
(2005/C 306/01)
(Text with EEA relevance)
(Publication of titles and references of harmonised standards under the directive)
European standardisation organisation | Reference and title of the harmonised standard (and reference document) | First publication OJ | Reference of superseded standard | Date of cessation of presumption of conformity of superseded standard Note 1 |
CEN | EN 132: 1998 | 4.6.1999 | EN 132: 1990 | Date Expired ( 30.6.1999) |
Respiratory protective devices - Definitions of terms and pictograms | | | |
CEN | EN 133: 2001 | 10.8.2002 | EN 133: 1990 | Date Expired ( 30.4.2002) |
Respiratory protective devices - Classification | | | |
CEN | EN 134: 1998 | 13.6.1998 | EN 134: 1990 | Date Expired ( 31.7.1998) |
Respiratory protective devices - Nomenclature of components | | | |
CEN | EN 135: 1998 | 4.6.1999 | EN 135: 1990 | Date Expired ( 30.6.1999) |
Respiratory protective devices - List of equivalent terms | | | |
CEN | EN 136: 1998 | 13.6.1998 | EN 136: 1989 EN 136-10: 1992 | Date Expired ( 31.7.1998) |
Respiratory protective devices - Full face masks - Requirements, testing, marking | | | |
EN 136: 1998/AC: 1999 | | | |
CEN | EN 137: 1993 | 23.12.1993 | EN 137: 1986 | Date Expired ( 31.7.1993) |
Respiratory protective devices - Self-contained open-circuit compressed air breathing apparatus - Requirements, testing, marking | | | |
EN 137: 1993/AC: 1993 | | | |
CEN | EN 138: 1994 | 16.12.1994 | — | |
Respiratory protective devices - Fresh air hose breathing apparatus for use with full face mask, half mask or mouthpiece assembly - Requirements, testing, marking | | | |
CEN | EN 140: 1998 | 6.11.1998 | EN 140: 1989 | Date Expired ( 31.3.1999) |
Respiratory protective devices - Half masks and quarter masks - Requirements, testing, marking | | | |
EN 140: 1998/AC: 1999 | | | |
CEN | EN 142: 2002 | 10.4.2003 | EN 142: 1989 | Date Expired ( 31.10.2002) |
Respiratory protective devices - Mouthpiece assemblies - Requirements, testing, marking | | | |
CEN | EN 143: 2000 | 24.1.2001 | EN 143: 1990 | Date Expired ( 31.8.2000) |
Respiratory protective devices - Particle filters - Requirements, testing, marking | | | |
CEN | EN 144-1: 2000 | 24.1.2001 | EN 144-1: 1991 | Date Expired ( 28.2.2001) |
Respiratory protective devices - Gas cylinder valves — Part 1: Thread connections for insert connector | | | |
EN 144-1: 2000/A1: 2003 | 21.2.2004 | Note 3 | Date Expired ( 31.10.2003) |
EN 144-1: 2000/A2: 2005 | 6.10.2005 | Note 3 | 31.12.2005 |
CEN | EN 144-2: 1998 | 4.6.1999 | — | |
Respiratory protective devices - Gas cylinder valves — Part 2: Outlet connections | | | |
CEN | EN 144-3: 2003 | 21.2.2004 | — | |
Respiratory protective devices - Gas cylinder valves — Part 3: Outlet connections for diving gases Nitrox and oxygen | | | |
CEN | EN 145: 1997 | 19.2.1998 | EN 145: 1988 EN 145-2: 1992 | Date Expired ( 28.2.1998) |
Respiratory protective devices - Self-contained closed-circuit breathing apparatus compressed oxygen or compressed oxygen-nitrogen type - Requirements, testing, marking | | | |
EN 145: 1997/A1: 2000 | 24.1.2001 | Note 3 | Date Expired ( 30.9.2000) |
CEN | EN 148-1: 1999 | 4.6.1999 | EN 148-1: 1987 | Date Expired ( 31.8.1999) |
Respiratory protective devices - Threads for facepieces — Part 1: Standard thread connection | | | |
CEN | EN 148-2: 1999 | 4.6.1999 | EN 148-2: 1987 | Date Expired ( 31.8.1999) |
Respiratory protective devices - Threads for facepieces — Part 2: Centre thread connection | | | |
CEN | EN 148-3: 1999 | 4.6.1999 | EN 148-3: 1992 | Date Expired ( 31.8.1999) |
Respiratory protective devices - Threads for facepieces — Part 3: Tread connection M 45 x 3 | | | |
CEN | EN 149: 2001 | 21.12.2001 | EN 149: 1991 | Date Expired ( 31.10.2001) |
Respiratory protective devices - Filtering half masks to protect against particles - Requirements, testing, marking | | | |
CEN | EN 165: 1995 | 15.5.1996 | EN 165: 1986 | Date Expired ( 31.1.1996) |
Personal eye-protection - Vocabulary | | | |
CEN | EN 166: 2001 | 10.8.2002 | EN 166: 1995 | Date Expired ( 31.5.2002) |
Personal eye-protection - Specifications | | | |
CEN | EN 167: 2001 | 10.8.2002 | EN 167: 1995 | Date Expired ( 31.5.2002) |
Personal eye-protection - Optical test methods | | | |
CEN | EN 168: 2001 | 10.8.2002 | EN 168: 1995 | Date Expired ( 31.5.2002) |
Personal eye-protection - Non-optical test methods | | | |
CEN | EN 169: 2002 | 28.8.2003 | EN 169: 1992 | Date Expired ( 31.5.2003) |
Personal eye-protection - Filters for welding and related techniques - Transmittance requirements and recommended use | | | |
CEN | EN 170: 2002 | 28.8.2003 | EN 170: 1992 | Date Expired ( 30.4.2003) |
Personal eye-protection - Ultraviolet filters - Transmittance requirements and recommended use | | | |
CEN | EN 171: 2002 | 10.4.2003 | EN 171: 1992 | Date Expired ( 30.9.2002) |
Personal eye-protection - Infrared filters - Transmittance requirements and recommended use | | | |
CEN | EN 172: 1994 | 15.5.1996 | — | |
Personal eye protection - Sunglare filters for industrial use | | | |
EN 172: 1994/A1: 2000 | 4.7.2000 | Note 3 | Date Expired ( 31.10.2000) |
EN 172: 1994/A2: 2001 | 10.8.2002 | Note 3 | Date Expired ( 28.2.2002) |
CEN | EN 174: 2001 | 21.12.2001 | EN 174: 1996 | Date Expired ( 31.10.2001) |
Personal eye-protection - Ski goggles for downhill skiing | | | |
CEN | EN 175: 1997 | 19.2.1998 | — | |
Personal protection - Equipment for eye and face protection during welding and allied processes | | | |
CEN | EN 207: 1998 | 21.11.1998 | EN 207: 1993 | Date Expired ( 31.3.1999) |
Personal eye-protection - Filters and eye-protectors against laser radiation (laser eye-protectors) | | | |
EN 207: 1998/A1: 2002 | 28.8.2003 | Note 3 | Date Expired ( 28.2.2003) |
CEN | EN 208: 1998 | 21.11.1998 | EN 208: 1993 | Date Expired ( 31.3.1999) |
Personal eye-protection - Eye-protectors for adjustment work on lasers and laser systems (laser adjustment eye-protectors) | | | |
EN 208: 1998/A1: 2002 | 28.8.2003 | Note 3 | Date Expired ( 28.2.2003) |
CEN | EN 250: 2000 | 8.6.2000 | EN 250: 1993 | Date Expired ( 19.7.2000) |
Respiratory equipment - Open-circuit self-contained compressed air diving apparatus - Requirements, testing, marking | | | |
CEN | EN 269: 1994 | 16.12.1994 | — | |
Respiratory protective devices - Powered fresh air hose breathing apparatus incorporating a hood - Requirements, testing, marking | | | |
CEN | EN 340: 2003 | 6.10.2005 | EN 340: 1993 | Date expired ( 6.10.2005) |
Protective clothing - General requirements | | | |
CEN | EN 341: 1992 | 23.12.1993 | — | |
Personal protective equipment against falls from a height - Descender devices | | | |
EN 341: 1992/A1: 1996 | 6.11.1998 | Note 3 | Date Expired ( 30.4.1997) |
EN 341: 1992/AC: 1993 | | | |
CEN | EN 342: 2004 | 6.10.2005 | — | |
Protective clothing - Ensembles and garments for protection against cold | | | |
CEN | EN 343: 2003 | 21.2.2004 | — | |
Protective clothing - Protection against rain | | | |
CEN | EN 348: 1992 | 23.12.1993 | — | |
Protective clothing - Test method: Determination of behaviour of materials on impact of small splashes of molten metal | | | |
EN 348: 1992/AC: 1993 | | | |
CEN | EN 352-1: 2002 | 28.8.2003 | EN 352-1: 1993 | Date Expired ( 30.4.2003) |
Hearing protectors - General requirements — Part 1: Ear-Muffs | | | |
CEN | EN 352-2: 2002 | 28.8.2003 | EN 352-2: 1993 | Date Expired ( 30.4.2003) |
Hearing protectors - General requirements — Part 2: Ear-plugs | | | |
CEN | EN 352-3: 2002 | 28.8.2003 | EN 352-3: 1996 | Date Expired ( 30.4.2003) |
Hearing protectors - General requirements — Part 3: Ear-muffs attached to an industrial safety helmet | | | |
CEN | EN 352-4: 2001 | 10.8.2002 | — | |
Hearing protectors - Safety requirements and testing — Part 4: Level-dependent ear-muffs | | | |
CEN | EN 352-5: 2002 | 28.8.2003 | — | |
Hearing protectors - Safety requirements and testing — Part 5: Active noise reduction ear-muffs | | | |
CEN | EN 352-6: 2002 | 28.8.2003 | — | |
Hearing protectors - Safety requirements and testing — Part 6: Ear-muffs with electrical audio input | | | |
CEN | EN 352-7: 2002 | 28.8.2003 | — | |
Hearing protectors - Safety requirements and testing — Part 7: Level-dependent ear-plugs | | | |
CEN | EN 353-1: 2002 | 28.8.2003 | EN 353-1: 1992 | Date Expired ( 30.11.2002) |
Personal protective equipment against falls from a height — Part 1: Guided type fall arresters including a rigid anchor line | | | |
CEN | EN 353-2: 2002 | 28.8.2003 | EN 353-2: 1992 | Date Expired ( 30.11.2002) |
Personal protective equipment against falls from a height — Part 2: Guided type fall arresters including a flexible anchor line | | | |
CEN | EN 354: 2002 | 28.8.2003 | EN 354: 1992 | Date Expired ( 30.11.2002) |
Personal protective equipment against falls from a height - Lanyards | | | |
CEN | EN 355: 2002 | 28.8.2003 | EN 355: 1992 | Date Expired ( 30.11.2002) |
Personal protective equipment against falls from a height - Energy absorbers | | | |
CEN | EN 358: 1999 | 21.12.2001 | EN 358: 1992 | Date Expired ( 30.6.2000) |
Personal protective equipment for work positioning and prevention of falls from a height - Belts for work positioning and restraint and work positioning lanyards | | | |
CEN | EN 360: 2002 | 28.8.2003 | EN 360: 1992 | Date Expired ( 30.11.2002) |
Personal protective equipment against falls from a height - Retractable type fall arresters | | | |
CEN | EN 361: 2002 | 28.8.2003 | EN 361: 1992 | Date Expired ( 30.11.2002) |
Personal protective equipment against falls from a height - Full body harnesses | | | |
CEN | EN 362: 2004 | 6.10.2005 | EN 362: 1992 | Date expired ( 6.10.2005) |
Personal protective equipment against falls from a height - Connectors | | | |
CEN | EN 363: 2002 | 28.8.2003 | EN 363: 1992 | Date Expired ( 30.11.2002) |
Personal protective equipment against falls from a height - Fall arrest systems | | | |
CEN | EN 364: 1992 | 23.12.1993 | — | |
Personal protective equipment against falls from a height - Test methods | | | |
EN 364: 1992/AC: 1993 | | | |
CEN | EN 365: 2004 | 6.10.2005 | EN 365: 1992 | Date expired ( 6.10.2005) |
Personal protective equipment against falls from a height - General requirements for instructions for use, maintenance, periodic examination, repair, marking and packaging | | | |
CEN | EN 367: 1992 | 23.12.1993 | — | |
Protective clothing - Protection against heat and fire - Method of determining heat transmission on exposure to flame | | | |
EN 367: 1992/AC: 1992 | | | |
CEN | EN 373: 1993 | 23.12.1993 | — | |
Protective clothing - Assessment of resistance of materials to molten metal splash | | | |
CEN | EN 374-1: 2003 | 6.10.2005 | EN 374-1: 1994 | Date expired ( 6.10.2005) |
Protective gloves against chemicals and micro-organisms — Part 1: Terminology and performance requirements | | | |
CEN | EN 374-2: 2003 | 6.10.2005 | EN 374-2: 1994 | Date expired ( 6.10.2005) |
Protective gloves against chemicals and micro-organisms — Part 2: Determination of resistance to penetration | | | |
CEN | EN 374-3: 2003 | 6.10.2005 | EN 374-3: 1994 | Date expired ( 6.10.2005) |
Protective gloves against chemicals and micro-organisms — Part 3: Determination of resistance to permeation by chemicals | | | |
CEN | EN 379: 2003 | 6.10.2005 | EN 379: 1994 | Date expired ( 6.10.2005) |
Personal eye-protection - Automatic welding filters | | | |
CEN | EN 381-1: 1993 | 23.12.1993 | — | |
Protective clothing for users of hand-held chainsaws — Part 1: Test rig for testing resistance to cutting by a chainsaw | | | |
CEN | EN 381-2: 1995 | 12.1.1996 | — | |
Protective clothing for users of hand-held chain saws — Part 2: Test methods for leg protectors | | | |
CEN | EN 381-3: 1996 | 10.10.1996 | — | |
Protective clothing for users of hand-held chain-saws — Part 3: Test methods for footwear | | | |
CEN | EN 381-4: 1999 | 16.3.2000 | — | |
Protective clothing for users of hand-held chainsaws — Part 4: Test methods for chainsaw protective gloves | | | |
CEN | EN 381-5: 1995 | 12.1.1996 | — | |
Protective clothing for users of hand-held chain saws — Part 5: Requirements for leg protectors | | | |
CEN | EN 381-7: 1999 | 16.3.2000 | — | |
Protective clothing for users of hand-held chainsaws — Part 7: Requirements for chainsaw protective gloves | | | |
CEN | EN 381-8: 1997 | 18.10.1997 | — | |
Protective clothing for users of hand-held chain saws — Part 8: Test methods for chain saw protective gaiters | | | |
CEN | EN 381-9: 1997 | 18.10.1997 | — | |
Protective clothing for users of hand-held chain saws — Part 9: Requirements for chain saw protective gaiters | | | |
CEN | EN 381-10: 2002 | 28.8.2003 | — | |
Protective clothing for users of hand-held chainsaws — Part 10: Test method for upper body protectors | | | |
CEN | EN 381-11: 2002 | 28.8.2003 | — | |
Protective clothing for users of hand-held chainsaws — Part 11: Requirements for upper body protectors | | | |
CEN | EN 388: 2003 | 6.10.2005 | EN 388: 1994 | Date expired ( 6.10.2005) |
Protective gloves against mechanical risks | | | |
CEN | EN 393: 1993 | 16.12.1994 | — | |
Lifejackets and personal buoyancy aids - Buoyancy aids - 50 N | | | |
EN 393: 1993/A1: 1998 | 6.11.1998 | Note 3 | Date Expired ( 30.9.1998) |
EN 393: 1993/AC: 1995 | | | |
CEN | EN 394: 1993 | 16.12.1994 | — | |
Lifejackets and personal buoyancy aids - Additional items | | | |
CEN | EN 395: 1993 | 16.12.1994 | — | |
Lifejackets and personal buoyancy aids - Lifejackets - 100 N | | | |
EN 395: 1993/A1: 1998 | 6.11.1998 | Note 3 | Date Expired ( 30.9.1998) |
EN 395: 1993/AC: 1995 | | | |
CEN | EN 396: 1993 | 16.12.1994 | — | |
Lifejackets and personal buoyancy aids - Lifejackets - 150 N | | | |
EN 396: 1993/A1: 1998 | 6.11.1998 | Note 3 | Date Expired ( 30.9.1998) |
EN 396: 1993/AC: 1995 | | | |
CEN | EN 397: 1995 | 12.11.1996 | — | |
Industrial safety helmets | | | |
EN 397: 1995/A1: 2000 | 24.1.2001 | Note 3 | Date Expired ( 30.9.2000) |
CEN | EN 399: 1993 | 16.12.1994 | — | |
Lifejackets and personal buoyancy aids - Lifejackets - 275 N | | | |
EN 399: 1993/A1: 1998 | 6.11.1998 | Note 3 | Date Expired ( 30.9.1998) |
EN 399: 1993/AC: 1995 | | | |
CEN | EN 400: 1993 | 6.10.2005 | — | |
Respiratory protective devices for self-rescue - Self-contained closed-circuit breathing apparatus - Compressed oxygen escape apparatus - Requirements, testing, marking | | | |
CEN | EN 401: 1993 | 6.10.2005 | — | |
Respiratory protective devices for self-rescue - Self-contained closed-circuit breathing apparatus - Chemical oxygen (KO2) escape apparatus - Requirements, testing, marking | | | |
CEN | EN 402: 2003 | 21.2.2004 | EN 402: 1993 | Date Expired ( 21.2.2004) |
Respiratory protective devices - Lung governed demand self-contained open-circuit compressed air breathing apparatus with full face mask or mouthpiece assembly for escape - Requirements, testing, marking | | | |
CEN | EN 403: 2004 | 6.10.2005 | EN 403: 1993 | Date expired ( 6.10.2005) |
Respiratory protective devices for self-rescue - Filtering devices with hood for escape from fire - Requirements, testing, marking | | | |
CEN | EN 404: 2005 | 6.10.2005 | EN 404: 1993 | The date of this publication |
Respiratory protective devices for self-rescue - Filter self-rescuer from carbon monoxide with mouthpiece assembly | | | |
CEN | EN 405: 2001 | 10.8.2002 | EN 405: 1992 | Date Expired ( 30.6.2002) |
Respiratory protective devices - Valved filtering half masks to protect against gases or gases and particles - Requirements, testing, marking | | | |
CEN | EN 407: 2004 | 6.10.2005 | EN 407: 1994 | Date expired ( 6.10.2005) |
Protective gloves against thermal risks (heat and/or fire) | | | |
CEN | EN 420: 2003 | This is the first publication | EN 420: 1994 | The date of this publication |
Protective gloves - General requirements and test methods Note 4 | | | |
CEN | EN 421: 1994 | 16.12.1994 | — | |
Protective gloves against ionizing radiation and radioactive contamination | | | |
CEN | EN 443: 1997 | 19.2.1998 | — | |
Helmets for firefighters | | | |
CEN | EN 458: 2004 | 6.10.2005 | EN 458: 1993 | Date expired ( 6.10.2005) |
Hearing protectors - Recommendations for selection, use, care and maintenance - Guidance document | | | |
CEN | EN 463: 1994 | 16.12.1994 | — | |
Protective clothing - Protection against liquid chemicals - Test method: Determination of resistance to penetration by a jet of liquid (Jet Test) | | | |
CEN | EN 464: 1994 | 16.12.1994 | — | |
Protective clothing - Protection against liquid and gaseous chemicals, including aerosols and solid particles - Test method: Determination of leak-tightness of gas-tight suits (Internal pressure test) | | | |
CEN | EN 468: 1994 | 16.12.1994 | — | |
Protective clothing - Protection against liquid chemicals - Test method: Determination of resistance to penetration by spray (Spray Test) | | | |
CEN | EN 469: 1995 | 15.5.1996 | — | |
Protective clothing for firefighters - Requirements and test methods for protective clothing for firefighting | | | |
CEN | EN 470-1: 1995 | 12.1.1996 | — | |
Protective clothing for use in welding and allied processes — Part 1: General requirements | | | |
EN 470-1: 1995/A1: 1998 | 13.6.1998 | Note 3 | Date Expired ( 31.8.1998) |
CEN | EN 471: 2003 | 6.10.2005 | EN 471: 1994 | Date expired ( 6.10.2005) |
High-visibility warning clothing for professional use - Test methods and requirements | | | |
CEN | EN 510: 1993 | 16.12.1994 | — | |
Specification for protective clothing for use where there is a risk of entanglement with moving parts | | | |
CEN | EN 511: 1994 | 16.3.2000 | — | |
Protective gloves against cold | | | |
CEN | EN 530: 1994 | 30.8.1995 | — | |
Abrasion resistance of protective clothing material - Test methods | | | |
EN 530: 1994/AC: 1995 | | | |
CEN | EN 531: 1995 | 6.11.1998 | — | |
Protective clothing for industrial workers exposed to heat (excluding firefighters' and welders' clothing) | | | |
EN 531: 1995/A1: 1998 | 4.6.1999 | Note 3 | Date Expired ( 31.1.1999) |
CEN | EN 533: 1997 | 14.6.1997 | — | |
Protective clothing - Protection against heat and flame - Limited flame spread materials and material assemblies | | | |
CEN | EN 564: 1997 | 10.8.2002 | — | |
Mountaineering equipment - Accessory cord - Safety requirements and test methods | | | |
CEN | EN 565: 1997 | 10.8.2002 | — | |
Mountaineering equipment - Tape - Safety requirements and test methods | | | |
CEN | EN 566: 1997 | 10.8.2002 | — | |
Mountaineering equipment - Slings - Safety requirements and test methods | | | |
CEN | EN 567: 1997 | 10.8.2002 | — | |
Mountaineering equipment - Rope clamps - Safety requirements and test methods | | | |
CEN | EN 568: 1997 | 14.6.1997 | — | |
Mountaineering equipment - Ice anchors - Safety requirements and test methods | | | |
CEN | EN 569: 1997 | 10.8.2002 | — | |
Mountaineering equipment - Pitons - Safety requirements and test methods | | | |
CEN | EN 659: 2003 | 21.2.2004 | EN 659: 1996 | Date Expired ( 21.2.2004) |
Protective gloves for firefighters | | | |
CEN | EN 702: 1994 | 12.1.1996 | — | |
Protective clothing - Protection against heat and flame - Test method: Determination of the contact heat transmission through protective clothing or its materials | | | |
CEN | EN 795: 1996 | 12.2.2000 | — | |
Protection against falls from a height - Anchor devices - Requirements and testing | | | |
Warning: This publication does not concern the equipment described in classes A (structural anchors), C (anchor devices employing horizontal flexible lines) and D (anchor devices employing horizontal rigid anchor rails) referred to in paragraphs 3.13.1, 3.13.3, 3.13.4, 4.3.1, 4.3.3, 4.3.4, 5.2.1, 5.2.2, 5.2.4, 5.2.5, 5.3.2 (in respect of class A1), 5.3.3, 5.3.4, 5.3.5, 6 (in respect of classes A, C and D), Annex A (paragraphs A.2, A.3, A.5 and A.6), Annex B, and Annex ZA (in respect of classes A, C and D), in respect of which there shall be no presumption of conformity with the provisions of Directive 89/686/EEC. | | | |
EN 795: 1996/A1: 2000 | 24.1.2001 | Note 3 | Date Expired ( 30.4.2001) |
CEN | EN 812: 1997 | 19.2.1998 | — | |
Industrial bump caps | | | |
EN 812: 1997/A1: 2001 | 10.8.2002 | Note 3 | Date Expired ( 30.6.2002) |
CEN | EN 813: 1997 | 14.6.1997 | — | |
Personal protective equipment for prevention of falls from a height - Sit harnesses | | | |
CEN | EN 863: 1995 | 15.5.1996 | — | |
Protective clothing - Mechanical properties - Test method: Puncture resistance | | | |
CEN | EN 892: 2004 | 6.10.2005 | EN 892: 1996 | Date expired ( 6.10.2005) |
Mountaineering equipment - Dynamic mountaineering ropes - Safety requirements and test methods | | | |
CEN | EN 893: 1999 | 10.8.2002 | — | |
Mountaineering equipment - Crampons - Safety requirements and test methods | | | |
CEN | EN 943-1: 2002 | 28.8.2003 | — | |
Protective clothing against liquid and gaseous chemicals, including liquid aerosols and solid particles — Part 1: Performance requirements for ventilated and non-ventilated "gas-tight" (Type 1) and "non-gas-tight" (Type 2) chemical protective suits | | | |
CEN | EN 943-2: 2002 | 10.8.2002 | — | |
Protective clothing against liquid and gaseous chemicals, including liquid aerosols and solid particles — Part 2: Performance requirements for "gas-tight" (Type 1) chemical protective suits for emergency teams (ET) | | | |
CEN | EN 958: 1996 | 14.6.1997 | — | |
Mountaineering equipment - Energy absorbing systems for use in klettersteig (via ferrata) climbing - Safety requirements and test methods | | | |
CEN | EN 960: 1994 | 15.5.1996 | — | |
Headforms for use in the testing of protective helmets | | | |
EN 960: 1994/A1: 1998 | 6.11.1998 | Note 3 | Date Expired ( 31.8.1998) |
CEN | EN 966: 1996 | 10.10.1996 | — | |
Helmets for airborne sports | | | |
EN 966: 1996/A1: 2000 | 4.7.2000 | Note 3 | Date Expired ( 30.9.2000) |
CEN | EN 1061: 1996 | 6.10.2005 | — | |
Respiratory protective devices for self-rescue - Self-contained closed-circuit breathing apparatus - Chemical oxygen (NaClO3) escape apparatus - Requirements, testing, marking | | | |
CEN | EN 1073-1: 1998 | 6.11.1998 | — | |
Protective clothing against radioactive contamination — Part 1: Requirements and test methods for ventilated protective clothing against particulate radioactive contamination | | | |
CEN | EN 1073-2: 2002 | 28.8.2003 | — | |
Protective clothing against radioactive contamination — Part 2: Requirements and test methods for non-ventilated protective clothing against particulate radioactive contamination | | | |
CEN | EN 1077: 1996 | 10.10.1996 | — | |
Helmets for alpine skiers | | | |
CEN | EN 1078: 1997 | 14.6.1997 | — | |
Helmets for pedal cyclists and for users of skateboards and roller skates | | | |
CEN | EN 1080: 1997 | 14.6.1997 | — | |
Impact protection helmets for young children | | | |
EN 1080: 1997/A1: 2002 | 28.8.2003 | Note 3 | Date Expired ( 31.3.2003) |
CEN | EN 1082-1: 1996 | 14.6.1997 | — | |
Protective clothing - Gloves and arm guards protecting against cuts and stabs by hand knives — Part 1: Chain mail gloves and arm guards | | | |
CEN | EN 1082-2: 2000 | 21.12.2001 | — | |
Protective clothing - Gloves and arm guards protecting against cuts and stabs by hand knives — Part 2: Gloves and arm guards made of material other than chain mail | | | |
CEN | EN 1082-3: 2000 | 21.12.2001 | — | |
Protective clothing - Gloves and arm guards protecting against cuts and stabs by hand knives — Part 3: Impact cut test for fabric, leather and other materials | | | |
CEN | EN 1095: 1998 | 6.11.1998 | — | |
Deck safety harness and safety line for use on recreational craft - Safety requirements and test methods | | | |
CEN | EN 1146: 1997 | 14.6.1997 | — | |
Respiratory protective devices for self-rescue - Self-contained open-circuit compressed air breathing apparatus incorporating a hood (compressed air escape apparatus with hood) - Requirements, testing, marking | | | |
EN 1146: 1997/A1: 1998 | 4.6.1999 | Note 3 | Date Expired ( 30.6.1999) |
EN 1146: 1997/A2: 1999 | 16.3.2000 | Note 3 | Date Expired ( 31.1.2000) |
EN 1146: 1997/A3: 2001 | 10.8.2002 | Note 3 | Date Expired ( 31.12.2001) |
CEN | EN 1149-1: 1995 | 10.10.1996 | — | |
Protective clothing - Electrostatic properties — Part 1: Surface resistivity (Test methods and requirements) | | | |
CEN | EN 1149-2: 1997 | 19.2.1998 | — | |
Protective clothing - Electrostatic properties — Part 2: Test method for measurement of the electrical resistance through a material (vertical resistance) | | | |
CEN | EN 1149-3: 2004 | 6.10.2005 | — | |
Protective clothing - Electrostatic properties — Part 3: Test methods for measurement of charge decay | | | |
CEN | EN 1150: 1999 | 4.6.1999 | — | |
Protective clothing - Visibility clothing for non-professional use - Test methods and requirements | | | |
CEN | EN 1384: 1996 | 14.6.1997 | — | |
Helmets for equestrian activities | | | |
EN 1384: 1996/A1: 2001 | 10.8.2002 | Note 3 | Date Expired ( 30.4.2002) |
CEN | EN 1385: 1997 | 13.6.1998 | — | |
Helmets for canoeing and white water sports | | | |
EN 1385: 1997/A1: 2005 | 6.10.2005 | Note 3 | Date expired ( 6.10.2005) |
CEN | EN 1486: 1996 | 3.12.1996 | — | |
Protective clothing for firefighters - Test methods and requirements for reflective clothing for specialized fire fighting | | | |
CEN | EN 1621-1: 1997 | 13.6.1998 | — | |
Motorcyclists' protective clothing against mechanical impact — Part 1: Requirements and test methods for impact protectors | | | |
CEN | EN 1621-2: 2003 | 6.10.2005 | — | |
Motorcyclists' protective clothing against mechanical impact — Part 2: Motorcyclists' back protectors - Requirements and test methods | | | |
CEN | EN 1731: 1997 | 14.6.1997 | — | |
Mesh type eye and face protectors for industrial and non-industrial use against mechanical hazards and/or heat | | | |
EN 1731: 1997/A1: 1997 | 13.6.1998 | Note 3 | Date Expired ( 30.6.1998) |
CEN | EN 1809: 1997 | 13.6.1998 | — | |
Diving accessories - Buoyancy compensators - Functional and safety requirements, test methods | | | |
CEN | EN 1827: 1999 | 24.2.2001 | — | |
Respiratory protective devices - Half masks without inhalation valves and with separable filters to protect against gases or gases and particles or particles only - Requirements, testing, marking | | | |
CEN | EN 1836: 2005 | This is the first publication | EN 1836: 1997 and its amendments | 31.3.2006 |
Personal eye-equipment - Sunglasses and sunglare filters for general use and filters for direct observation of the sun | | | |
CEN | EN 1868: 1997 | 18.10.1997 | — | |
Personal protective equipment against falls from a height - List of equivalent terms | | | |
CEN | EN 1891: 1998 | 6.11.1998 | — | |
Personal protective equipment for the prevention of falls from a height - Low stretch kernmantel ropes | | | |
CEN | EN 1938: 1998 | 4.6.1999 | — | |
Personal eye protection - Goggles for motorcycle and moped users | | | |
CEN | EN ISO 4869-2: 1995 | 15.5.1996 | — | |
Acoustics - Hearing protectors — Part 2: Estimation of effective A-weighted sound pressure levels when hearing protectors are worn (ISO 4869-2: 1994) | | | |
CEN | EN ISO 4869-4: 2000 | 6.10.2005 | — | |
Acoustics - Hearing protectors — Part 4: Measurement of effective sound pressure levels for level-dependent sound-restoration ear-muffs (ISO/TR 4869-4: 1998) | | | |
CEN | EN ISO 6529: 2001 | 6.10.2005 | EN 369: 1993 | Date Expired ( 30.4.2002) |
Protective clothing - Protection against chemicals - Determination of resistance of protective clothing materials to permeation by liquids and gases (ISO 6529: 2001) | | | |
CEN | EN ISO 6530: 2005 | 6.10.2005 | EN 368: 1992 | Date expired ( 6.10.2005) |
Protective clothing - Protection against liquid chemicals - Test method for resistance of materials to penetration by liquids (ISO 6530: 2005) | | | |
CEN | EN ISO 6942: 2002 | 28.8.2003 | EN 366: 1993 | Date Expired ( 31.12.2002) |
Protective clothing - Protection against heat and fire - Method of test: Evaluation of materials and material assemblies when exposed to a source of radiant heat (ISO 6942: 2002) | | | |
CEN | EN ISO 10256: 2003 | 6.10.2005 | EN 967: 1996 | Date expired ( 6.10.2005) |
Head and face protection for use in ice hockey (ISO 10256: 2003) | | | |
CEN | EN ISO 10819: 1996 | 3.12.1996 | — | |
Mechanical vibration and shock - Hand-arm vibration - Method for the measurement and evaluation of the vibration transmissibility of gloves at the palm of the hand (ISO 10819: 1996) | | | |
CEN | EN 12083: 1998 | 4.7.2000 | — | |
Respiratory protective devices - Filters with breathing hoses, (Non-mask mounted filters) - Particle filters, gas filters, and combined filters - Requirements, testing, marking | | | |
EN 12083: 1998/AC: 2000 | | | |
CEN | EN 12270: 1998 | 16.3.2000 | — | |
Mountaineering equipment - Chocks - Safety requirements and test methods | | | |
CEN | EN 12275: 1998 | 16.3.2000 | — | |
Mountaineering equipment - Connectors - Safety requirements and test methods | | | |
CEN | EN 12276: 1998 | 24.2.2001 | — | |
Mountaineering equipment - Frictional anchors - Safety requirements and test methods | | | |
EN 12276: 1998/AC: 2000 | | | |
CEN | EN 12277: 1998 | 6.11.1998 | — | |
Mountaineering equipment - Harnesses - Safety requirements and test methods | | | |
CEN | EN 12278: 1998 | 6.11.1998 | — | |
Mountaineering equipment - Pulleys - Safety requirements and test methods | | | |
CEN | EN 12477: 2001 | 10.8.2002 | — | |
Protective gloves for welders | | | |
EN 12477: 2001/A1: 2005 | 6.10.2005 | Note 3 | 31.12.2005 |
CEN | EN 12492: 2000 | 21.12.2001 | — | |
Mountaineering equipment - Helmets for mountaineers - Safety requirements and for test methods | | | |
EN 12492: 2000/A1: 2002 | 28.8.2003 | Note 3 | Date Expired ( 30.4.2003) |
CEN | EN 12568: 1998 | 6.11.1998 | — | |
Foot and leg protectors - Requirements and test methods for toecaps and metal penetration resistant inserts | | | |
CEN | EN 12628: 1999 | 4.7.2000 | — | |
Diving accessories - Combined buoyancy and rescue devices - Functional and safety requirements, test methods | | | |
EN 12628: 1999/AC: 2000 | | | |
CEN | EN 12941: 1998 | 4.6.1999 | EN 146: 1991 | Date Expired ( 30.4.1999) |
Respiratory protective devices - Powered filtering devices incorporating a helmet or a hood - Requirements, testing, marking | | | |
EN 12941: 1998/A1: 2003 | 6.10.2005 | Note 3 | Date expired ( 6.10.2005) |
CEN | EN 12942: 1998 | 4.6.1999 | EN 147: 1991 | Date Expired ( 30.4.1999) |
Respiratory protective devices - Power assisted filtering devices incorporating full face masks, half masks or quarter masks - Requirements, testing, marking | | | |
EN 12942: 1998/A1: 2002 | 28.8.2003 | Note 3 | Date Expired ( 31.5.2003) |
CEN | EN 13034: 2005 | 6.10.2005 | — | |
Protective clothing against liquid chemicals - Performance requirements for chemical protective clothing offering limited protective performance against liquid chemicals (Type 6 and Type PB [6] equipment) | | | |
CEN | EN 13061: 2001 | 10.8.2002 | — | |
Protective clothing - Shin guards for association football players - Requirements and test methods | | | |
CEN | EN 13087-1: 2000 | 10.8.2002 | — | |
Protective helmets - Test methods — Part 1: Conditions and conditioning | | | |
EN 13087-1: 2000/A1: 2001 | 10.8.2002 | Note 3 | Date Expired ( 30.6.2002) |
CEN | EN 13087-2: 2000 | 10.8.2002 | — | |
Protective helmets - Test methods — Part 2: Shock absorption | | | |
EN 13087-2: 2000/A1: 2001 | 10.8.2002 | Note 3 | Date Expired ( 30.6.2002) |
CEN | EN 13087-3: 2000 | 10.8.2002 | — | |
Protective helmets - Test methods — Part 3: Resistance to penetration | | | |
EN 13087-3: 2000/A1: 2001 | 10.8.2002 | Note 3 | Date Expired ( 30.6.2002) |
CEN | EN 13087-4: 2000 | 21.12.2001 | — | |
Protective helmets - Test methods — Part 4: Retention system effectiveness | | | |
CEN | EN 13087-5: 2000 | 24.2.2001 | — | |
Protective helmets - Test methods — Part 5: Retention system strength | | | |
CEN | EN 13087-6: 2000 | 10.8.2002 | — | |
Protective helmets - Test methods — Part 6: Field of vision | | | |
EN 13087-6: 2000/A1: 2001 | 10.8.2002 | Note 3 | Date Expired ( 30.6.2002) |
CEN | EN 13087-7: 2000 | 10.8.2002 | — | |
Protective helmets - Test methods — Part 7: Flame resistance | | | |
EN 13087-7: 2000/A1: 2001 | 108.2002 | Note 3 | Date Expired ( 30.6.2002) |
CEN | EN 13087-8: 2000 | 21.12.2001 | — | |
Protective helmets - Test methods — Part 8: Electrical properties | | | |
EN 13087-8: 2000/A1: 2005 | 6.10.2005 | Note 3 | Date expired ( 6.10.2005) |
CEN | EN 13087-10: 2000 | 21.12.2001 | — | |
Protective helmets - Test methods — Part 10: Resistance to radiant heat | | | |
CEN | EN 13138-1: 2003 | 6.10.2005 | — | |
Buoyant aids for swimming instruction — Part 1: Safety requirements and test methods for buoyant aids to be worn | | | |
CEN | EN 13158: 2000 | 24.2.2001 | — | |
Protective clothing - Protective jackets, body and shoulder protectors for horse riders - Requirements and test methods | | | |
CEN | EN 13178: 2000 | 21.12.2001 | — | |
Personal eye-protection - Eye protectors for snowmobile users | | | |
CEN | EN 13274-1: 2001 | 21.12.2001 | — | |
Respiratory protective devices - Methods of test — Part 1: Determination of inward leakage and total inward leakage | | | |
CEN | EN 13274-2: 2001 | 21.12.2001 | — | |
Respiratory protective devices - Methods of test — Part 2: Practical performance tests | | | |
CEN | EN 13274-3: 2001 | 10.8.2002 | — | |
Respiratory protective devices - Methods of test — Part 3: Determination of breathing resistance | | | |
CEN | EN 13274-4: 2001 | 10.8.2002 | — | |
Respiratory protective devices - Methods of test — Part 4: Flame tests | | | |
CEN | EN 13274-5: 2001 | 21.12.2001 | — | |
Respiratory protective devices - Methods of test — Part 5: Climatic conditions | | | |
CEN | EN 13274-6: 2001 | 10.8.2002 | — | |
Respiratory protective devices - Methods of test — Part 6: Determination of carbon dioxide content of the inhalation air | | | |
CEN | EN 13274-7: 2002 | 28.8.2003 | — | |
Respiratory protective devices - Methods of test — Part 7: Determination of particle filter penetration | | | |
CEN | EN 13274-8: 2002 | 28.8.2003 | — | |
Respiratory protective devices - Methods of test — Part 8: Determination of dolomite dust clogging | | | |
CEN | EN 13277-1: 2000 | 24.2.2001 | — | |
Protective equipment for martial arts — Part 1: General requirements and test methods | | | |
CEN | EN 13277-2: 2000 | 24.2.2001 | — | |
Protective equipment for martial arts — Part 2: Additional requirements and test methods for instep protectors, shin protectors and forearm protectors | | | |
CEN | EN 13277-3: 2000 | 24.2.2001 | — | |
Protective equipment for martial arts — Part 3: Additional requirements and test methods for trunk protectors | | | |
CEN | EN 13277-4: 2001 | 10.8.2002 | — | |
Protective equipment for martial arts — Part 4: Additional requirements and test methods for head protectors | | | |
CEN | EN 13277-5: 2002 | 10.8.2002 | — | |
Protective equipment for martial arts — Part 5: Additional requirements and test methods for genital protectors and abdominal protectors | | | |
CEN | EN 13277-6: 2003 | 21.2.2004 | — | |
Protective equipment for martial arts — Part 6: Additional requirements and test methods for breast protectors for females | | | |
CEN | EN 13287: 2004 | 6.10.2005 | — | |
Personal protective equipment - Footwear - Test method for slip resistance | | | |
CEN | EN 13356: 2001 | 21.12.2001 | — | |
Visibility accessories for non-professional use - Test methods and requirements | | | |
CEN | EN 13484: 2001 | 10.8.2002 | — | |
Helmets for users of luges | | | |
CEN | EN 13546: 2002 | 28.8.2003 | — | |
Protective clothing - Hand, arm, chest, abdomen, leg, foot and genital protectors for field hockey goal keepers, and shin protectors for field players - Requirements and test methods | | | |
CEN | EN 13567: 2002 | 28.8.2003 | — | |
Protective clothing - Hand, arm, chest, abdomen, leg, genital and face protectors for fencers - Requirements and test methods | | | |
CEN | EN 13594: 2002 | 28.8.2003 | — | |
Protective gloves for professional motorcycle riders - Requirements and test methods | | | |
CEN | EN 13595-1: 2002 | 28.8.2003 | — | |
Protective clothing for professional motorcycle riders - Jackets, trousers and one piece or divided suits — Part 1: General requirements | | | |
CEN | EN 13595-2: 2002 | 28.8.2003 | — | |
Protective clothing for professional motorcycle riders - Jackets, trousers and one-piece or divided suits — Part 2: Test method for determination of impact abrasion resistance | | | |
CEN | EN 13595-3: 2002 | 28.8.2003 | — | |
Protective clothing for professional motorcycle riders - Jackets, trousers and one-piece or divided suits — Part 3: Test method for determination of burst strength | | | |
CEN | EN 13595-4: 2002 | 28.8.2003 | — | |
Protective clothing for professional motorcycle riders - Jackets, trousers and one-piece or divided suits — Part 4: Test method for determination of impact cut resistance | | | |
CEN | EN 13634: 2002 | 28.8.2003 | — | |
Protective footwear for professional motorcycle riders - Requirements and test methods | | | |
CEN | EN 13781: 2001 | 10.8.2002 | — | |
Protective helmets for drivers and passengers of snowmobiles and bobsleighs | | | |
CEN | EN 13794: 2002 | 28.8.2003 | — | |
Respiratory protective devices - Self-contained closed-circuit breathing apparatus for escape - Requirements, testing, marking | | | |
CEN | EN 13819-1: 2002 | 28.8.2003 | — | |
Hearing protectors - Testing — Part 1: Physical test methods | | | |
CEN | EN 13819-2: 2002 | 28.8.2003 | — | |
Hearing protectors - Testing — Part 2: Acoustic test methods | | | |
CEN | EN 13911: 2004 | 6.10.2005 | — | |
Protective clothing for firefighters - Requirements and test methods for fire hoods for firefighters | | | |
CEN | EN 13949: 2003 | 21.2.2004 | — | |
Respiratory equipment - Open-circuit self-contained diving apparatus for use with compressed Nitrox and oxygen - Requirements, testing, marking | | | |
CEN | EN ISO 13982-1: 2004 | 6.10.2005 | — | |
Protective clothing for use against solid particulates — Part 1: Performance requirements for chemical protective clothing providing protection to the full body against airborne solid particulates (type 5 clothing) (ISO 13982-1: 2004) | | | |
CEN | EN ISO 13982-2: 2004 | 6.10.2005 | — | |
Protective clothing for use against solid particulates — Part 2: Test method of determination of inward leakage of aerosols of fine particles into suits (ISO 13982-2: 2004) | | | |
CEN | EN ISO 13995: 2000 | 6.10.2005 | — | |
Protective clothing - Mechanical properties - Test method for the determination of the resistance to puncture and dynamic tearing of materials (ISO 13995: 2000) | | | |
CEN | EN ISO 13997: 1999 | 4.7.2000 | — | |
Protective clothing - Mechanical properties - Determination of resistance to cutting by sharp objects (ISO 13997: 1999) | | | |
EN ISO 13997: 1999/AC: 2000 | | | |
CEN | EN ISO 13998: 2003 | 28.8.2003 | EN 412: 1993 | Date Expired ( 31.7.2003) |
Protective clothing - Aprons, trousers and vests protecting against cuts and stabs by hand knives (ISO 13998: 2003) | | | |
CEN | EN 14021: 2003 | 6.10.2005 | — | |
Stone shields for off-road motorcycling suited to protect riders against stones and debris - Requirements and test methods | | | |
CEN | EN 14058: 2004 | 6.10.2005 | — | |
Protective clothing - Garments for protection against cool environments | | | |
CEN | EN 14120: 2003 | 21.2.2004 | — | |
Protective clothing - Wrist, palm, knee and elbow protectors for users of roller sports equipment - Requirements and test methods | | | |
CEN | EN 14126: 2003 | 6.10.2005 | — | |
Protective clothing - Performance requirements and tests methods for protective clothing against infective agents | | | |
CEN | EN 14143: 2003 | 6.10.2005 | — | |
Respiratory equipment - Self-contained re-breathing diving apparatus | | | |
CEN | EN 14225-1: 2005 | 6.10.2005 | — | |
Diving suits — Part 1: Wet suits - Requirements and test methods | | | |
CEN | EN 14225-2: 2005 | 6.10.2005 | — | |
Diving suits — Part 2: Dry suits - Requirements and test methods | | | |
CEN | EN 14225-3: 2005 | 6.10.2005 | — | |
Diving suits — Part 3: Actively heated or cooled suits (systems) - Requirements and test methods | | | |
CEN | EN 14225-4: 2005 | 6.10.2005 | — | |
Diving suits — Part 4: One atmosphere suits (ADS) - Human factors requirements and test methods | | | |
CEN | EN 14325: 2004 | 6.10.2005 | — | |
Protective clothing against chemicals - Test methods and performance classification of chemical protective clothing materials, seams, joins and assemblages | | | |
CEN | EN 14328: 2005 | 6.10.2005 | — | |
Protective clothing - Gloves and armguards protecting against cuts by powered knives - Requirements and test methods | | | |
CEN | EN 14360: 2004 | 6.10.2005 | — | |
Protective clothing against rain - Test method for ready made garments - Impact from above with high energy droplets | | | |
CEN | EN 14387: 2004 | 6.10.2005 | EN 141: 2000 EN 371: 1992 EN 372: 1992 | Date expired ( 6.10.2005) |
Respiratory protective devices - Gas filter(s) and combined filter(s) - Requirements, testing, marking | | | |
CEN | EN 14404: 2004 | 6.10.2005 | — | |
Personal protective equipment - Knee protectors for work in the kneeling position | | | |
CEN | EN 14435: 2004 | 6.10.2005 | — | |
Respiratory protective devices - Self-contained open-circuit compressed air breathing apparatus with half mask designed to be used with positive pressure only - Requirements, testing, marking | | | |
CEN | EN 14458: 2004 | 6.10.2005 | — | |
Personal eye-equipment - Faceshields and visors for use with firefighters' and high performance industrial safety helmets used by firefighters, ambulance and emergency services | | | |
CEN | EN ISO 14460: 1999 | 16.3.2000 | — | |
Protective clothing for automobile racing drivers - Protection against heat and flame - Performance requirements and test methods (ISO 14460: 1999) | | | |
EN ISO 14460: 1999/A1: 2002 | 10.8.2002 | Note 3 | Date Expired ( 30.9.2002) |
EN ISO 14460: 1999/AC: 1999 | | | |
CEN | EN 14572: 2005 | 6.10.2005 | — | |
High Performance Helmets for Equestrian Activities | | | |
CEN | EN 14593-1: 2005 | 6.10.2005 | EN 139: 1994 | The date of this publication |
Respiratory protective devices - Compressed air line breathing apparatus with demand valve — Part 1: Apparatus with a full face mask - Requirements, testing, marking | | | |
CEN | EN 14593-2: 2005 | 6.10.2005 | EN 139: 1994 | The date of this publication |
Respiratory protective devices - Compressed air line breathing apparatus with demand valve — Part 2: Apparatus with a half mask at positive pressure - Requirements, testing, marking | | | |
CEN | EN 14594: 2005 | 6.10.2005 | EN 271: 1995 EN 12419: 1999 EN 139: 1994 EN 1835: 1999 EN 270: 1994 | The date of this publication |
Respiratory protective devices - Continuous flow compressed air line breathing apparatus - Requirements, testing, marking | | | |
CEN | EN 14605: 2005 | 6.10.2005 | EN 467: 1995 EN 466: 1995 EN 465: 1995 | Date expired ( 6.10.2005) |
Protective clothing against liquid chemicals - Performance requirements for clothing with liquid-tight (Type 3) or spray-tight (Type 4) connections, including items providing protection to parts of the body only (Types PB [3] and PB [4]) | | | |
CEN | EN ISO 14877: 2002 | 28.8.2003 | — | |
Protective clothing for abrasive blasting operations using granular abrasives (ISO 14877: 2002) | | | |
CEN | EN ISO 15025: 2002 | 28.8.2003 | EN 532: 1994 | Date Expired ( 31.5.2003) |
Protective clothing - Protection against heat and flame - Method of test for limited flame spread (ISO 15025: 2000) | | | |
CEN | EN ISO 15027-1: 2002 | 10.4.2003 | — | |
Immersion suits — Part 1: Constant wear suits, requirements including safety (ISO 15027-1: 2002) | | | |
CEN | EN ISO 15027-2: 2002 | 10.4.2003 | — | |
Immersion suits — Part 2: Abandonment suits, requirements including safety (ISO 15027-2: 2002) | | | |
CEN | EN ISO 15027-3: 2002 | 10.4.2003 | — | |
Immersion suits — Part 3: Test methods (ISO 15027-3: 2002) | | | |
CEN | EN ISO 15831: 2004 | 6.10.2005 | — | |
Clothing - Physiological effects - Measurement of thermal insulation by means of a thermal manikin (ISO 15831: 2004) | | | |
CEN | EN ISO 17249: 2004 | 6.10.2005 | — | |
Safety footwear with resistance to chain saw cutting - (ISO 17249: 2004) | | | |
CEN | EN ISO 20344: 2004 | 6.10.2005 | EN 344: 1992 EN 344-2: 1996 | Date expired ( 6.10.2005) |
Personal protective equipment - Test methods for footwear (ISO 20344: 2004) | | | |
CEN | EN ISO 20345: 2004 | 6.10.2005 | EN 345: 1992 EN 345-2: 1996 | Date expired ( 6.10.2005) |
Personal protective equipment - Safety footwear - (ISO 20345: 2004) | | | |
CEN | EN ISO 20346: 2004 | 6.10.2005 | EN 346-2: 1996 EN 346: 1992 | Date expired ( 6.10.2005) |
Personal protective equipment - Protective footwear (ISO 20346: 2004) | | | |
CEN | EN ISO 20347: 2004 | 6.10.2005 | EN 347: 1992 EN 347-2: 1996 | Date expired ( 6.10.2005) |
Personal protective equipment - Occupational footwear - (ISO 20347: 2004) | | | |
CEN | EN 24869-1: 1992 | 16.12.1994 | — | |
Acoustics - Hearing protectors - Subjective method for the measurement of sound attenuation (ISO 4869-1: 1990) | | | |
CEN | EN 24869-3: 1993 | 16.12.1994 | — | |
Acoustics - Hearing protectors — Part 3: Simplified method for the measurement of insertion loss of ear-muff type protectors for quality inspection purposes (ISO/TR 4869-3: 1989) | | | |
Cenelec | EN 50237: 1997 | 4.6.1999 | — | |
Gloves and mitts with mechanical protection for electrical purposes | | | |
Cenelec | EN 50286: 1999 | 16.3.2000 | — | |
Electrical insulating protective clothing for low-voltage installations | | | |
Cenelec | EN 50321: 1999 | 16.3.2000 | — | |
Electrically insulating footwear for working on low voltage installations | | | |
Cenelec | EN 50365: 2002 | 10.4.2003 | — | |
Electrically insulating helmets for use on low voltage installations | | | |
Cenelec | EN 60743: 2001 | 10.4.2003 | EN 60743: 1996 | Date expired ( 1.12.2004) |
Live working - Terminology for tools, equipment and devices (IEC 60743: 2001) | | Note 2.1 | |
Cenelec | EN 60895: 2003 | 6.10.2005 | EN 60895: 1996 | 1.7.2006 |
Live working - Conductive clothing for use at nominal voltage up to 800 kV a.c. and ± 600 kV d.c. (IEC 60895: 2002 (Modified)) | | Note 2.1 | |
Cenelec | EN 60903: 2003 | 6.10.2005 | EN 60903: 1992 and its amendment + EN 50237: 1997 | 1.7.2006 |
Live working - Gloves of insulating material (IEC 60903: 2002 (Modified)) | | Note 2.1 | |
Cenelec | EN 60984: 1992 | 4.6.1999 | — | |
Sleeves of insulating material for live working (IEC 60984: 1990 (Modified)) | | | |
EN 60984: 1992/A1: 2002 (IEC 60984: 1990/A1: 2002) | 10.4.2003 | Note 3 | Date expired ( 6.10.2005) |
EN 60984: 1992/A11: 1997 | 4.6.1999 | Note 3 | Date expired ( 1.12.1997) |
Note 1: Generally the date of cessation of presumption of conformity will be the date of withdrawal ("dow"), set by the European Standardisation Organisation, but attention of users of these standards is drawn to the fact that in certain exceptional cases this can be otherwise.
Note 2.1: The new (or amended) standard has the same scope as the superseded standard. On the date stated, the superseded standard ceases to give presumption of conformity with the essential requirements of the directive.
Note 3: In case of amendments, the referenced standard is EN CCCCC: YYYY, its previous amendments, if any, and the new, quoted amendment. The superseded standard (column 3) therefore consists of EN CCCCC: YYYY and its previous amendments, if any, but without the new quoted amendment. On the date stated, the superseded standard ceases to give presumption of conformity with the essential requirements of the directive.
Note 4: The presumption of conformity given by EN 420: 2003 with regard to the BHSR 1.2.1.1 and concerning the content of Cr(VI) of the glove materials is subjected to the detection limit of the test method for Cr(VI) to be 3 mg/kg or lower.
Note:
- Any information concerning the availability of the standards can be obtained either from the European Standardisation Organisations or from the national standardisation bodies of which the list is annexed to the Directive 98/34/EC [2] of the European Parliament and Council amended by the Directive 98/48/EC [3].
- Publication of the references in the Official Journal of the European Union does not imply that the standards are available in all the Community languages.
- This list replaces all the previous lists published in the Official Journal of the European Union. The Commission ensures the updating of this list.
More information about harmonised standards on the Internet at
http://europa.eu.int/comm/enterprise/newapproach/standardization/harmstds
[1] CEN: rue de Stassart 36, B-1050 Brussels, tel. (32-2) 550 08 11; fax (32-2) 550 08 19 (http://www.cenorm.be)Cenelec: rue de Stassart 35, B-1050 Brussels, tel. (32-2) 519 68 71; fax (32-2) 519 69 19 (http://www.cenelec.org)ETSI: 650, route des Lucioles, F-06921 Sophia Antipolis, tel. (33) 492 94 42 00; fax (33) 493 65 47 16 (http://www.etsi.org
[2] OJ L 204, 21.7.1998, p. 37.
[3] OJ L 217, 5.8.1998, p. 18.
--------------------------------------------------
