Removal from the register of Case C-425/04 [1]
(2005/C 271/35)
Language of the case: Italian
By order of 6 June 2005, the President of the Court of Justice of the European Communities has ordered the removal from the register of Case C-425/04: Commission of the European Communities
v Italian Republic.
[1] OJ C 300 of 04.12.2004.
--------------------------------------------------
