Corrigendum to Commission Regulation (EC) No 1279/2005 of 2 August 2005 amending the import duties in the cereals sector applicable from 3 August 2005
(Official Journal of the European Union L 202 of 3 August 2005)
On page 36, in recitals 1 and 2 and in Article 1:
for:
"(EC) No 1150/2005",
read:
"(EC) No 1256/2005".
--------------------------------------------------
