Order of the President of the Court of 7 June 2006 (reference for a preliminary ruling from the Hof van Beroep te Antwerpen — Belgium) — Criminal proceedings against Werner Bouwens
(Case C-272/05) [1]
(2006/C 224/65)
Language of the case: Dutch
The President of the Court has ordered that the case be removed from the register.
[1] OJ C 217, 3.9.2005.
--------------------------------------------------
