Euro exchange rates [1]
25 May 2006
(2006/C 126/02)
| Currency | Exchange rate |
USD | US dollar | 1,2755 |
JPY | Japanese yen | 143,08 |
DKK | Danish krone | 7,4578 |
GBP | Pound sterling | 0,68315 |
SEK | Swedish krona | 9,3156 |
CHF | Swiss franc | 1,5558 |
ISK | Iceland króna | 93,07 |
NOK | Norwegian krone | 7,8160 |
BGN | Bulgarian lev | 1,9558 |
CYP | Cyprus pound | 0,5750 |
CZK | Czech koruna | 28,228 |
EEK | Estonian kroon | 15,6466 |
HUF | Hungarian forint | 262,45 |
LTL | Lithuanian litas | 3,4528 |
LVL | Latvian lats | 0,6960 |
MTL | Maltese lira | 0,4293 |
PLN | Polish zloty | 3,9523 |
RON | Romanian leu | 3,5408 |
SIT | Slovenian tolar | 239,63 |
SKK | Slovak koruna | 37,900 |
TRY | Turkish lira | 1,9770 |
AUD | Australian dollar | 1,6862 |
CAD | Canadian dollar | 1,4235 |
HKD | Hong Kong dollar | 9,8926 |
NZD | New Zealand dollar | 1,9929 |
SGD | Singapore dollar | 2,0177 |
KRW | South Korean won | 1210,64 |
ZAR | South African rand | 8,4224 |
CNY | Chinese yuan renminbi | 10,2382 |
HRK | Croatian kuna | 7,2670 |
IDR | Indonesian rupiah | 11957,81 |
MYR | Malaysian ringgit | 4,652 |
PHP | Philippine peso | 67,570 |
RUB | Russian rouble | 34,5140 |
THB | Thai baht | 48,907 |
[1] Source: reference exchange rate published by the ECB.
--------------------------------------------------
